"scenario","question","plot_type","median","bci_lower","bci_upper","sd","sample_year","noa","variable"
1,1,"C",7.89560872047105,6.21293569879474,9.9645199501053,0.956230171612898,"0","0.43","100-hour fuel"
3,1,"C",9.15735650270556,6.91677470834762,12.0247133547685,1.30169345411487,"20","0.43","100-hour fuel"
4,2,"B",7.08604373375251,5.58370611291592,8.91367681726128,0.841839209376218,"0","0.31","100-hour fuel"
5,2,"B",7.80924430353079,6.04831983334837,9.91185348270549,0.988295972871839,"20","0.31","100-hour fuel"
7,3,"C",1.24940007288694,-0.778246834508175,3.57083938123845,1.10780117550953,NA,"0.25","100-hour fuel"
8,3,"B",0.711067316550766,-0.82088695223111,2.3560269640989,0.805165858663811,NA,"0.25","100-hour fuel"
