"scenario","question","plot_type","median","bci_lower","bci_upper","sd","sample_year","noa","variable"
1,1,"C",12.2746013073102,10.2310760085873,14.7019071347287,1.1426234778699,"0","0.94","Fuelbed depth"
3,1,"C",8.09610199514536,6.27245390019667,10.4813184264605,1.07169131960568,"20","0.94","Fuelbed depth"
4,2,"B",13.2035889289838,11.0807527995454,15.7474644694811,1.19106841291523,"0","1.00","Fuelbed depth"
5,2,"B",5.4779850239418,4.48146641079879,6.69838900666601,0.565114125038134,"20","1.00","Fuelbed depth"
7,3,"C",-4.18052169559532,-6.79472989906267,-1.38115607521748,1.36519572937144,NA,"0.86","Fuelbed depth"
8,3,"B",-7.71009804569296,-10.1294478138195,-5.5900477435149,1.15359405773,NA,"0.86","Fuelbed depth"
