"scenario","question","plot_type","median","bci_lower","bci_upper","sd","sample_year","noa","variable"
1,1,"C",0.588396583267356,0.523523736713736,0.651251465255648,0.0328264765852779,"0","0.83","Proportion small tree"
3,1,"C",0.495711162409454,0.42784789447219,0.563176182751554,0.0344973769972678,"20","0.83","Proportion small tree"
4,2,"B",0.611024318703018,0.547438559776545,0.670784694525778,0.0315009621996761,"0","1.00","Proportion small tree"
5,2,"B",0.28839354968422,0.236485985298966,0.34622180146186,0.0279530844850138,"20","1.00","Proportion small tree"
7,3,"C",-0.0924071353446271,-0.110324442498441,-0.0747877399441961,0.0090833965105086,NA,"1.00","Proportion small tree"
8,3,"B",-0.321511375360108,-0.339654228940487,-0.301923697771885,0.00966235529411046,NA,"1.00","Proportion small tree"
