"scenario","question","plot_type","median","bci_lower","bci_upper","sd","sample_year","noa","variable"
1,1,"C",34.2174139411173,31.4473444040709,37.1747473839262,1.45763094484776,"0","0.77","QMD"
3,1,"C",38.102620056827,34.7355679653082,41.7719785295149,1.79452807480808,"20","0.77","QMD"
4,2,"B",37.4494276092302,34.5651766293459,40.5325509811115,1.51791007921803,"0","0.97","QMD"
5,2,"B",45.1414373842853,41.5184411137133,49.0322201533609,1.9090434799104,"20","0.97","QMD"
7,3,"C",3.88876443399275,1.8022586506559,6.12625420726603,1.10205217455289,NA,"0.92","QMD"
8,3,"B",7.68287537740435,5.65704152817422,9.84788390994949,1.0658887706614,NA,"0.92","QMD"
