"scenario","question","plot_type","median","bci_lower","bci_upper","sd","sample_year","noa","variable"
1,1,"C",538.569183514404,478.355075658775,604.332137917195,32.1028670418899,"0","0.95","Tree density"
3,1,"C",425.765299509697,377.386216511927,478.970205689355,25.9502641081317,"20","0.95","Tree density"
4,2,"B",501.767720261893,447.213359451074,562.222593807121,29.2202011523458,"0","1.00","Tree density"
5,2,"B",256.251869740887,228.00362659474,287.967428175396,15.2243673594209,"20","1.00","Tree density"
7,3,"C",-112.473444497096,-133.797493234281,-93.307991941535,10.3817781202179,NA,"1.00","Tree density"
8,3,"B",-245.297961440137,-277.189457895517,-217.033942628788,15.3029864688258,NA,"1.00","Tree density"
