"plot_type","plot_name","sample_year","cwd_decay_class","cwd_count","cwd_qmd","cwd_vol","cwd_tpa_mean"
"B","FABCO1D10-02",0,NA,1,19,31.4230384011628,4.94363155339558
"B","FABCO1D10-02",1,NA,4,5.08060035822539,8.98733716044337,1.41131744933773
"B","FABCO1D10-02",2,NA,2,5.75543221661067,5.76669333539344,0.906129506828908
"B","FABCO1D10-02",3,NA,4,8.0350793399941,22.4792234545714,3.5335000052101
"B","FABCO1D10-02",5,NA,11,6.92163932237811,45.8724134000354,7.20420180117013
"B","FABCO1D10-02",10,NA,28,7.7275019064563,145.538283121175,22.843042250126
"B","FABCO1D10-02",20,3.33333333333333,6,12.7622490181002,85.0641669737848,13.271055
"B","FABCO1D10-03",0,NA,14,14.5211668165573,256.963855025132,41.0695655012803
"B","FABCO1D10-03",1,NA,14,9.36559051604786,106.890557220576,17.1910611940559
"B","FABCO1D10-03",2,NA,12,8.54834291934213,76.3283882094061,12.2821625664091
"B","FABCO1D10-03",3,NA,19,8.00572163813909,105.997481392332,17.0326140493758
"B","FABCO1D10-03",5,NA,24,11.8092301470785,291.336829081185,46.5644801088509
"B","FABCO1D10-03",10,NA,19,10.2366729792551,173.305455558768,27.6838415621484
"B","FABCO1D10-03",20,3.3448275862069,29,16.9124112761136,722.021341585233,112.6441988
"B","FABCO1D10-04",0,NA,6,10.6441689827498,59.1719315089375,9.2315482
"B","FABCO1D10-04",1,NA,1,4,1.39271084326483,0.21728
"B","FABCO1D10-04",2,NA,3,10.5927648263646,29.300895253738,4.5712996
"B","FABCO1D10-04",3,NA,5,8.0147364273568,27.9569292899874,4.3616244
"B","FABCO1D10-04",5,NA,4,9.38749167775929,30.6831607656783,4.78695
"B","FABCO1D10-04",10,NA,11,7.14938013842014,48.9407294766032,7.635355
"B","FABCO1D10-04",15,1.38461538461538,26,7.00960878969828,111.199256391926,17.34845
"B","FABCO1D10-04",20,3,12,11.4327745247308,136.529184853806,21.30023
"B","FABCO1D10-05",0,NA,5,5.12620717490037,11.4367673560354,1.7842762
"B","FABCO1D10-05",1,NA,17,7.37707099536044,80.5300227346807,12.5636728
"B","FABCO1D10-05",2,NA,15,6.99795208138305,63.9402252585655,9.9754606
"B","FABCO1D10-05",3,NA,14,7.35211339878347,65.8708706650413,10.276665
"B","FABCO1D10-05",5,NA,21,7.60929882258731,105.839930978188,16.5123294
"B","FABCO1D10-05",10,NA,24,7.07548584904245,104.583879886418,16.31637
"B","FABCO1D10-05",15,2.68571428571429,35,8.58837669677537,224.714547393988,35.05822985
"B","FABCO1D10-06",0,NA,1,3,0.783399849336468,0.123248432079114
"B","FABCO1D10-06",1,NA,6,7.24568837309472,27.4189947267764,4.28620996153498
"B","FABCO1D10-06",2,NA,7,9.07264333823705,50.1541287987977,7.85586000525079
"B","FABCO1D10-06",3,NA,11,8.71586849581633,72.736935122337,11.3971568174038
"B","FABCO1D10-06",5,NA,14,9.72750151448386,115.311235156666,18.0903725697937
"B","FABCO1D10-06",10,NA,37,8.46934057230725,231.015911126554,36.200202662632
"B","FABCO1D10-06",15,1.70454545454545,44,11.3940275423734,497.219532152471,77.8417334310081
"B","FABCO1D10-06",20,2.71666666666667,60,9.83398656022402,505.06985147603,78.79710125
"B","FABCO1D10-07",0,NA,21,11.0641850344339,223.768592075915,34.9106492
"B","FABCO1D10-07",1,NA,14,8.39323707346746,85.8475668231213,13.393275
"B","FABCO1D10-07",2,NA,12,8.13428956127495,69.1132755970173,10.78252
"B","FABCO1D10-07",3,NA,11,8.72139480087487,72.8292022157033,11.3622502
"B","FABCO1D10-07",5,NA,26,9.30053761886914,195.762917906413,30.54142
"B","FABCO1D10-07",10,NA,34,8.59163409780632,218.459752430244,34.082405
"B","FABCO1D10-07",15,2.58139534883721,43,12.6718420679611,601.020012189553,93.766505
"B","FABCO1D10-07",20,3.01785714285714,56,10.6022213811204,547.927045900397,85.48335005
"B","FABCO1D10-08",0,NA,10,14.4533041205117,181.834068585211,28.3697198428694
"B","FABCO1D10-08",1,NA,15,9.55859124906315,119.294388168403,18.6128191520991
"B","FABCO1D10-08",2,NA,17,8.60598287103051,109.595027589341,17.0992944499062
"B","FABCO1D10-08",3,NA,14,8.02313618765843,78.4435678026146,12.2392227830723
"B","FABCO1D10-08",5,NA,31,9.02793156747972,219.927321481335,34.3131972154368
"B","FABCO1D10-08",10,NA,36,9.70002863684203,294.842108184827,46.0019808170282
"B","FABCO1D10-08",15,2.34090909090909,44,11.3109460258636,489.994844653035,76.445215
"B","FABCO1D10-08",20,3.07407407407407,54,13.5330528159214,860.847628886148,134.302805
"B","FABCO1D10-09",0,NA,1,8,5.57084337305933,0.86912
"B","FABCO1D10-09",5,NA,9,11.1229991958604,96.9230998041849,15.1211942
"B","FABCO1D10-11",0,NA,5,6.14133535967545,16.4148381764301,2.5644070901701
"B","FABCO1D10-11",2,NA,4,5.88663741027082,12.0652281240586,1.88492915420892
"B","FABCO1D10-11",5,NA,12,7.81600921186765,63.8105290612864,10.2502222614514
"B","FABCO1D10-13",0,NA,5,6.24323634023252,16.9640885152427,2.7072357626532
"B","FABCO1D10-13",1,NA,4,9.60793942528782,32.1411549297212,5.05340060832624
"B","FABCO1D10-13",2,NA,6,7.66452868740146,30.6805494328472,4.82391694829497
"B","FABCO1D10-13",3,NA,11,7.16208451119187,49.1148183320113,7.77979206265607
"B","FABCO1D10-13",5,NA,8,8.02581771534839,44.854864040175,7.06411434998174
"B","FABCO1D10-13",10,NA,15,8.22512411253877,88.3318147897949,14.2497224847725
"B","FABCO1D10-13",20,2.8125,16,14.6061256413191,297.119408024634,47.0922488680019
"B","FABCO1D10-14",0,NA,7,12.9862014681518,102.755076460356,16.1028408625268
"B","FABCO1D10-14",2,NA,12,6.92068156566485,50.0287848229039,7.81751240594735
"B","FABCO1D10-14",5,NA,21,7.51493750568065,103.231209479897,16.1607204090045
"B","FABCO1D10-14",10,NA,31,6.62137301812557,118.303822581131,18.5378369858303
"B","FABCO1D10-15",0,NA,15,7.92990121838433,82.104656431847,13.0827104862327
"B","FABCO1D10-16",0,NA,2,5.59016994374947,5.44027673150325,0.862390145540288
"B","FABCO1D10-16",2,NA,7,8.07995756707387,39.7793034607518,6.2846524941309
"B","FABCO1D10-16",5,NA,15,8.01556818530872,83.8881967555031,13.242702387538
"B","FABCO1D10-16",10,NA,20,8.62823852243319,129.603059741394,20.461274684038
"B","FABCO1D10-18",0,NA,7,8.68488012911766,45.9585873834624,7.19370217180318
"B","FABCO1D10-18",1,NA,11,8.26762579968617,65.4478347463996,10.2274509557674
"B","FABCO1D10-18",2,NA,18,7.17805297030082,80.728484029846,12.6175978836384
"B","FABCO1D10-18",3,NA,21,8.93044551760197,145.782877963023,22.7927792904607
"B","FABCO1D10-18",5,NA,31,8.01991472885245,173.557013954832,27.1321866811185
"B","FABCO1D10-18",10,NA,46,7.79109022900658,243.049803256639,37.9988429810799
"B","FABCO1D10-18",15,2.11627906976744,43,11.1980064670998,469.343554180248,73.3820300590059
"B","FABCO1D10-18",20,3.14516129032258,62,10.3883270409473,582.403385214349,90.8620825
"B","FABCO1D10-24",0,NA,4,14.0801278403287,69.0262311693132,11.0322811406478
"B","FABCO1D10-24",1,NA,2,3.71214223865412,2.39894442752367,0.383902368936445
"B","FABCO1D10-24",2,NA,3,12.1564797536129,38.5902765783144,6.06375027256646
"B","FABCO1D10-24",3,NA,4,12.031209415516,50.3987236406461,7.91898172111274
"B","FABCO1D10-24",5,NA,8,14.7186531313161,150.85756809817,23.9224761706397
"B","FABCO1D10-24",10,NA,16,10.365959916959,149.651132330191,23.7718925054994
"B","FABCO1D10-24",15,2.04761904761905,21,12.5877869759692,289.640333185233,46.2160871718779
"B","FABCO1D10-24",20,3.09090909090909,22,12.7426181839455,310.943151199384,48.5109513
"B","FABCO1D10-25",0,NA,11,18.0189294405028,310.879173545022,48.995500918873
"B","FABCO1D10-25",1,NA,11,9.88685996664259,93.5945208887819,14.7320931776478
"B","FABCO1D10-25",2,NA,13,9.00666419935816,91.7935716795851,14.4632699691242
"B","FABCO1D10-25",3,NA,10,10.3758855043799,93.7111604219053,14.7426841482279
"B","FABCO1D10-25",5,NA,16,8.76962085839519,107.108168289836,16.8636848543386
"B","FABCO1D10-25",10,NA,29,10.4357641030158,274.908063796322,43.1963027120513
"B","FABCO1D10-25",20,3.53125,32,12.2847084824997,420.359302489793,65.581215
"B","FABCO1D10-26",0,NA,5,7.33948227056923,23.4445461578094,3.67099811639562
"B","FABCO1D10-26",1,NA,2,21.4009345590327,79.7326957769116,12.5276580534271
"B","FABCO1D10-26",2,NA,3,17.6109814225859,80.9896173129581,12.7245458372419
"B","FABCO1D10-26",3,NA,3,14.5378815513128,55.1905193857542,8.67082128819299
"B","FABCO1D10-26",5,NA,5,12.5608916880928,68.6676081271725,10.7874127533156
"B","FABCO1D10-26",10,NA,8,7.11512473537885,35.2529932201411,5.53293509788448
"B","FABCO1D10-26",15,1.91666666666667,12,8.55983839411313,76.5338130587877,12.0147091835756
"B","FABCO1D10-26",20,3.25,16,8.54285154383476,101.640472563606,15.8571623
"B","FABCO1D10-28",0,NA,11,13.7192631660079,180.216783118469,28.8894982163088
"B","FABCO1D10-28",1,NA,6,12.7327006823638,84.6707261605625,13.6005136944052
"B","FABCO1D10-28",2,NA,11,12.1430863232765,141.186061735972,22.6486442253443
"B","FABCO1D10-28",5,NA,12,11.5626193687532,139.647986698442,22.372807540225
"B","FABCO1D10-28",10,NA,17,14.4486921858815,308.920673921681,49.6155281011917
"B","FABCO1D10-28",20,2.9,20,12.239755920769,260.805343230781,40.68883735
"B","FABCO1D10-30",0,NA,6,5.5145262715849,15.8821262788813,2.47798504797838
"B","FABCO1D10-30",1,NA,2,4.2573465914816,3.15536050427188,0.492299613134687
"B","FABCO1D10-30",2,NA,6,5.47722557505166,15.6679969867294,2.44448606109853
"B","FABCO1D10-30",10,NA,27,9.80477963565238,225.933386992914,35.2509414078872
"B","FABCO1D10-30",20,2.7,40,11.7095046863648,477.395163742873,74.4885047490391
"B","FABCO1D10-40",0,NA,19,11.5485246266626,220.570579802068,34.7012763930945
"B","FABCO1D10-40",1,NA,14,8.40195555468232,86.0260078999146,13.5221037690694
"B","FABCO1D10-40",2,NA,13,8.07298438763986,73.748391372258,11.5855552006634
"B","FABCO1D10-40",3,NA,17,9.32895555594011,128.782230788145,20.2251215678031
"B","FABCO1D10-40",5,NA,15,6.63254601692794,57.4371360647957,9.01732528955524
"B","FABCO1D10-40",10,NA,11,5.89876720556546,33.3162547037259,5.23390895285013
"B","FABCO1D10-40",15,2.17307692307692,52,9.18087476978428,381.51572662686,60.0279637166881
"B","FABCO1D10-40",20,2.56521739130435,46,11.5878262582464,537.653844931696,83.8806045
"B","FABCO1D10-45",0,NA,23,6.03133123959704,72.8274613271492,11.4619295422082
"B","FABCO1D10-45",1,NA,2,6.08276253029822,6.44128765009985,1.02546712956098
"B","FABMA1D10-01",0,NA,20,8.80656005486819,135.015482256032,21.0640738
"B","FABMA1D10-01",1,NA,8,7.51889287062929,39.3675833177116,6.1418266
"B","FABMA1D10-01",2,NA,9,6.83739716558867,36.6239429564799,5.713785
"B","FABMA1D10-01",3,NA,10,6.92416059894627,41.7325804184307,6.5107952
"B","FABMA1D10-01",5,NA,8,8.18344365166645,46.6340521424459,7.275485
"B","FABMA1D10-01",10,NA,17,9.01387818865997,120.230115766222,18.757375
"B","FABMA1D10-01",15,1.91176470588235,34,10.3947809302667,319.779466277761,49.889525
"B","FABMA1D10-01",20,2.59090909090909,44,10.8650058570038,452.119855659378,70.53625145
"B","FPIJE1D05-01",0,NA,8,8.11441618355874,45.8506522931094,7.23966252180224
"B","FPIJE1D05-01",1,NA,5,7.3056142794429,23.2286759771033,3.71808367659351
"B","FPIJE1D05-01",2,NA,8,6.5719099202591,30.075590660304,4.80893290259123
"B","FPIJE1D05-01",3,NA,4,6.02391068990901,12.6344986812431,2.02674594130581
"B","FPIJE1D05-01",5,NA,2,5.53398590529466,5.33147119687318,0.850909896297597
"B","FPIJE1D05-01",10,NA,3,5.74456264653803,8.61739834270115,1.37097093633681
"B","FPIJE1D05-01",20,2.75,8,7.91951703072858,43.6745416005081,6.813765
"B","FPIJE1D05-05",0,NA,6,7.01177580930822,25.6772357284183,4.08529792531082
"B","FPIJE1D05-05",1,NA,5,15.602884348735,105.954829622757,17.776167745302
"B","FPIJE1D05-05",2,NA,4,17.3496397657127,104.804972732787,17.3059665451091
"B","FPIJE1D05-05",3,NA,13,10.9732541979263,136.255865350815,22.6492728135478
"B","FPIJE1D05-05",5,NA,5,15.602884348735,105.954829622757,17.776167745302
"B","FPIJE1D05-05",10,NA,8,12.9377838133121,116.560322694219,19.6186413849159
"B","FPIJE1D05-05",20,2.90909090909091,11,9.93415824315276,94.4921665494799,14.74193875
"B","FPIJE1D09-01",0,NA,14,8.92680553965735,97.1093748794715,15.375976610155
"B","FPIJE1D09-01",1,NA,9,9.27960727138337,67.4594314706403,10.8049432930082
"B","FPIJE1D09-01",2,NA,12,11.5042383494084,138.241348746744,21.9818776346381
"B","FPIJE1D09-01",5,NA,18,7.97130269571208,99.5570641865094,15.9113147571947
"B","FPIJE1D09-02",0,NA,4,33.5037311355019,390.829480391193,61.5594999214015
"B","FPIJE1D09-02",1,NA,1,12,12.5343975893835,1.97739722513814
"B","FPIJE1D09-02",2,NA,1,12,12.5343975893835,1.97739722513814
"B","FPIJE1D09-02",5,NA,4,8.36450835375278,24.360253537256,3.836136123985
"B","FPIJE1D09-03",0,NA,6,5.38129476365431,15.123969313579,2.359525
"B","FPIJE1D09-03",1,NA,10,6.1357966067985,32.7704861420215,5.11539805636193
"B","FPIJE1D09-03",2,NA,13,7.97418913167303,71.9544057172775,11.238083041924
"B","FPIJE1D09-03",3,NA,11,8.14755959000775,63.5607115537758,9.92872779981629
"B","FPIJE1D09-03",5,NA,10,8.77900905569643,67.0860108757899,10.4787696391507
"B","FPIJE1D09-03",10,NA,15,11.4796922142248,172.065072463985,26.8743301524446
"B","FPIJE1D09-03",15,1.44444444444444,18,8.22850735755479,106.085396264313,16.5744096176979
"B","FPIJE1D09-03",20,2.61363636363636,44,8.27329699586677,262.150614860947,40.89871625
"B","FPILA1D09-01",0,NA,1,6.5,3.6776270704962,0.587475810860507
"B","FPILA1D09-01",1,NA,3,6.25166644450368,10.2059591483001,1.63033227984366
"B","FPILA1D09-01",2,NA,3,6.27826940061245,10.2930035760041,1.64423703276343
"B","FPILA1D09-01",3,NA,4,6.07762289057161,12.8608141932737,2.05184883095946
"B","FPILA1D09-01",5,NA,5,6.04565960007674,15.9073691629155,2.53487179726156
"B","FPILA1D09-01",10,NA,3,6.7946057035465,12.0556532370112,1.92580827938888
"B","FPILA1D09-01",20,3.25,4,6.73609679265374,15.7985636282854,2.46477
"C","FABCO1D10-01",0,NA,6,8.63133825081603,38.9088591837112,6.07026
"C","FABCO1D10-01",2,NA,12,7.24419307675695,54.8153579023497,8.5518692
"C","FABCO1D10-01",5,NA,18,8.25930451739801,106.880982333528,16.6747462
"C","FABCO1D10-01",10,NA,22,8.74686956989341,146.510569378629,22.8574486
"C","FABCO1D10-01",15,1.88888888888889,27,8.07316083860132,153.176431652205,23.897405
"C","FABCO1D10-01",20,2.59375,32,9.3876914095,245.475731456751,38.2972296
"C","FABCO1D10-10",0,NA,3,13.699148392023,49.0060127973813,7.68435842739903
"C","FABCO1D10-10",3,NA,9,15.4641161690182,187.341369526046,29.3381130987962
"C","FABCO1D10-10",5,NA,9,14.9484670340027,175.055918999896,27.416282099836
"C","FABCO1D10-10",10,NA,10,10.7382959542006,100.371800029819,15.7227238870352
"C","FABCO1D10-10",15,2.05555555555556,18,16.4650302830642,424.755046088848,66.5631103395071
"C","FABCO1D10-10",20,-1,16,10.9323202020431,166.450706877073,26.0322142580506
"C","FABCO1D10-12",0,NA,3,21.4864298259778,120.556532370112,18.9960857457018
"C","FABCO1D10-12",2,NA,16,8.92489495736504,110.934641331706,17.4652925071578
"C","FABCO1D10-12",5,NA,27,9.34764775323282,205.356954727954,32.3157315244043
"C","FABCO1D10-12",10,NA,20,8.74285422502285,133.069168852569,20.9321770340947
"C","FABCO1D10-12",20,2.77777777777778,36,9.67206745679996,293.144741844598,46.1122503836028
"C","FABCO1D10-19",0,NA,27,18.5931090381276,812.472688189621,127.575033239696
"C","FABCO1D10-19",10,NA,38,9.74645684608677,314.208622904702,49.3409177507008
"C","FABCO1D10-19",15,3.46153846153846,52,11.1271065421339,560.413786665613,87.9966330533805
"C","FABCO1D10-19",20,3.04166666666667,72,15.3095841895055,1468.92716177357,229.17068195
"C","FABCO1D10-20",0,NA,12,16.2092052036284,274.438894330997,42.981253322604
"C","FABCO1D10-20",10,NA,29,15.7047104728003,622.585269153232,97.4780210383292
"C","FABCO1D10-20",15,3.32432432432432,37,14.1624264984615,645.978459098696,101.170158186676
"C","FABCO1D10-20",20,3.43333333333333,30,14.630661297426,558.972113331764,87.20651625
"C","FABCO1D10-21",0,NA,18,8.84018602116997,122.443655562736,19.1487252063004
"C","FABCO1D10-21",15,3,57,10.2781491951223,524.138021419949,81.9295500583753
"C","FABCO1D10-21",20,3.4,15,10.7594299725094,151.150907819532,23.5813984
"C","FABCO1D10-22",0,NA,27,11.8008474271978,327.288789055789,51.3437046299152
"C","FABCO1D10-22",3,NA,16,17.1014619258121,407.312213221233,63.8784667727713
"C","FABCO1D10-22",15,2.93939393939394,33,17.7966203805581,909.766597255825,141.934765
"C","FABCO1D10-22",20,3.35483870967742,31,16.2052759230423,708.623463273025,110.5539652
"C","FABCO1D10-23",0,NA,4,8.13249654165312,23.027603349107,3.61836318538245
"C","FABCO1D10-23",15,2.66666666666667,15,10.807404868885,152.501837337499,23.861700136419
"C","FABCO1D10-23",20,-1,16,10.4122824106917,150.991616516834,23.556547
"C","FABCO1D10-31",0,NA,3,4.02077936060494,4.22165474364652,0.658950534741186
"C","FABCO1D10-32",0,NA,4,4.73022198210613,7.79047627951265,1.21864237351791
"C","FABCO1D10-33",0,NA,6,6.65507325278993,23.1311862180748,3.61001847549356
"C","FABCO1D10-33",20,2.63157894736842,19,11.3941062788942,214.711401762239,33.5066090738924
"C","FABCO1D10-36",0,NA,9,9.62490981198727,72.5732915982533,11.3774841550137
"C","FABCO1D10-36",15,2.81818181818182,22,9.08073635380263,157.908601964336,24.6356817
"C","FABCO1D10-37",0,NA,7,12.6453266353339,97.4314392619765,15.2989337051205
"C","FABCO1D10-37",15,3.625,8,20.9000598085269,304.17675261181,47.45531
"C","FABCO1D10-38",0,NA,14,9.49112367274964,109.775209554688,17.1272243829351
"C","FABCO1D10-38",15,3.15789473684211,19,12.1941530423828,245.922269370873,38.366895
"C","FABCO1D10-41",0,NA,23,11.570201606601,268.009792900776,41.8169464265566
"C","FABCO1D10-41",1,NA,33,11.4226118119308,374.788062809614,58.4801980652422
"C","FABCO1D10-41",2,NA,31,11.6173813050574,364.182569738152,56.8261334134006
"C","FABCO1D10-41",3,NA,33,10.0904094880418,292.464054419952,45.6353103525847
"C","FABCO1D10-41",5,NA,33,11.590957813326,385.916692891577,60.2191331129839
"C","FABCO1D10-41",10,NA,33,11.9683927175885,411.459009757054,64.2045143588471
"C","FABCO1D10-41",15,2.56410256410256,39,11.8356805183873,475.545469654162,74.2056551469632
"C","FABCO1D10-41",20,3.34615384615385,52,12.9283342671466,756.535762836305,118.0288725
"C","FABCO1D10-42",0,NA,26,9.9252785273842,222.946022234111,34.7823182
"C","FABCO1D10-42",10,NA,31,9.97335158988611,268.401492825444,41.87393
"C","FABCO1D10-42",15,2.4047619047619,42,12.5552398471335,576.288949390278,89.9081554
"C","FPICO1D10-02",0,NA,29,6.93171123819041,121.288576007103,18.9643339160194
"C","FPICO1D10-02",15,2.91304347826087,46,7.79466093749015,243.272636991562,38.060045431724
"C","FPIJE1D05-02",0,NA,14,7.58268704729022,70.0672825246537,11.5950053769002
"C","FPIJE1D05-02",5,NA,35,8.70423542223637,230.818320275666,38.1993567309082
"C","FPIJE1D05-02",20,3.2,30,8.57430755221668,191.981925578018,29.95153875
"C","FPIJE1D05-03",0,NA,4,11.6821444949119,47.5166826393649,7.67211659704908
"C","FPIJE1D05-03",2,NA,8,14.0244429479391,136.962666103772,22.123476585297
"C","FPIJE1D05-03",3,NA,5,9.89383646519387,42.6030246954712,6.87887871460234
"C","FPIJE1D05-03",5,NA,11,8.88691581637143,75.6198465678952,12.2084153875674
"C","FPIJE1D05-03",10,NA,7,9.96063681268852,60.4523550404641,9.76021852710596
"C","FPIJE1D05-03",15,2.53846153846154,13,7.06568086979918,56.4927040242068,9.10469731907018
"C","FPIJE1D05-03",20,3.14285714285714,14,8.63909304102164,90.9505463972713,14.1894025
"C","FPIJE1D05-04",0,NA,1,0,0,0
"C","FPIJE1D05-04",20,3,9,12.037303130962,113.512026836023,17.7092706
"C","FPIJE1D05-06",0,NA,4,8.02340326794061,22.4139401337934,3.67054357632847
"C","FPIJE1D05-06",15,3.85714285714286,7,16.7246610044654,170.432989444534,28.2168869804374
"C","FPIJE1D05-07",0,NA,3,3.9496835316263,4.07367921654963,0.692677790403159
"C","FPIJE1D05-07",15,3.33333333333333,3,9.22406273468114,22.2180901714593,3.77711939150416
"C","FPIJE1D05-08",0,NA,14,10.512713391753,134.678620320817,21.3194552299371
"C","FPIJE1D05-08",15,3.14285714285714,21,12.8713459909618,302.836486036237,48.1247855535205
"C","FPIJE1D05-12",0,NA,10,9.61956339965593,80.5474316202215,12.6299297111086
"C","FPIJE1D05-12",15,3.36,25,11.2485554628139,275.343285934842,42.956935
"C","FPIJE1D06-08",0,NA,5,14.1162317918062,86.7258450986551,13.5302972
"C","FPIJE1D06-08",15,3.22222222222222,9,12.4331546010388,121.100560043262,18.893175
