"plot_type","plot_name","sample_year","trees_per_ha","snags_per_ha","large_trees_per_ha","medium_trees_per_ha","small_trees_per_ha","spotted_owl_nest_trees_per_ha","white_fir_trees_per_ha","pine_trees_per_ha","shade_tolerant_trees_per_ha","shade_intolerant_trees_per_ha","tree_qmd","tree_basal_area_per_ha","mortality_all_trees_yrs_15_to_20"
"B","FABCO1D10-02",0,580,300,20,210,350,10,520,50,530,50,32.6547641346505,48.5747951009992,NA
"B","FABCO1D10-02",1,490,320,10,240,240,10,450,40,450,40,35.6078528371688,48.7952485114832,NA
"B","FABCO1D10-02",2,460,350,10,250,200,10,430,30,430,30,36.3779436280928,47.8105791260686,NA
"B","FABCO1D10-02",3,490,390,10,240,240,10,460,30,460,30,35.5872024693124,48.738668427792,NA
"B","FABCO1D10-02",5,490,390,20,240,230,10,460,30,460,30,36.0937667748879,50.1360802560353,NA
"B","FABCO1D10-02",10,420,160,30,210,180,10,390,30,390,30,38.1330253067812,47.9669047765112,NA
"B","FABCO1D10-02",20,270,40,30,210,30,10,240,30,240,30,47.0908184807313,47.0247097237731,NA
"B","FABCO1D10-03",0,350,390,20,70,260,10,220,50,280,70,34.6092473191776,32.9262472041112,NA
"B","FABCO1D10-03",1,260,400,20,70,170,10,150,50,190,70,39.5452418610148,31.9338809166953,NA
"B","FABCO1D10-03",2,230,440,20,80,130,10,140,50,160,70,42.0347992480764,31.9180001658314,NA
"B","FABCO1D10-03",3,210,440,20,80,110,10,130,50,150,60,43.2415695058971,30.8398369830459,NA
"B","FABCO1D10-03",5,180,500,10,90,80,0,130,40,140,40,35.2255115884307,17.5419151033718,NA
"B","FABCO1D10-03",10,170,220,10,90,70,0,110,50,120,50,37.3127245288347,18.5888587091622,NA
"B","FABCO1D10-03",20,110,20,10,80,20,0,60,50,60,50,46.2527640451701,18.4823822801504,NA
"B","FABCO1D10-04",0,240,60,30,20,190,10,120,80,120,120,35.0483475597162,23.1545431666059,0
"B","FABCO1D10-04",1,230,80,30,20,180,10,100,80,110,120,36.7058756106952,24.3382245926439,0
"B","FABCO1D10-04",2,230,70,30,20,180,10,110,80,110,120,37.1131993395529,24.8813824005046,0
"B","FABCO1D10-04",3,210,100,30,30,150,10,100,70,100,110,38.3341014415798,24.237049601235,0
"B","FABCO1D10-04",5,220,110,30,40,150,10,100,70,110,110,38.2244210372945,25.2461055996231,0
"B","FABCO1D10-04",10,220,60,30,60,130,20,120,70,120,100,39.7310274905463,27.2754644980993,0
"B","FABCO1D10-04",15,290,30,30,90,170,30,170,80,170,120,37.4514490304816,31.9466357828689,0
"B","FABCO1D10-04",20,320,10,30,90,200,30,200,80,200,120,36.7686432303396,33.9777853891575,0
"B","FABCO1D10-05",0,790,440,30,230,530,10,490,40,750,40,32.5068425124093,65.5641668884576,NA
"B","FABCO1D10-05",1,710,400,40,270,400,10,450,40,670,40,34.7795977914526,67.4523897369712,NA
"B","FABCO1D10-05",2,650,460,40,270,340,10,420,40,610,40,36.1731030548305,66.7997395711512,NA
"B","FABCO1D10-05",3,620,490,40,270,310,10,410,40,580,40,36.6488656691951,65.4037493135837,NA
"B","FABCO1D10-05",5,610,480,40,300,270,10,410,40,570,40,37.2016371048196,66.3046245689455,NA
"B","FABCO1D10-05",10,530,380,60,260,210,10,340,40,490,40,38.437383532574,61.4997549548207,NA
"B","FABCO1D10-05",15,550,340,60,260,230,20,360,40,510,40,39.0817627777738,65.9782602161273,NA
"B","FABCO1D10-06",0,810,320,0,350,460,0,660,110,690,120,31.3502220048453,62.52535143853,0
"B","FABCO1D10-06",1,720,400,0,360,360,0,570,110,600,120,33.7536561805615,64.4264234009968,0
"B","FABCO1D10-06",2,550,500,0,340,210,0,440,100,450,100,36.4029394417539,57.2434074180128,0
"B","FABCO1D10-06",3,510,560,0,320,190,0,420,90,420,90,37.0722082893774,55.049955281258,0
"B","FABCO1D10-06",5,460,600,0,310,150,0,380,80,380,80,37.9643940738069,52.0715683660222,0
"B","FABCO1D10-06",10,340,410,10,270,60,0,270,70,270,70,42.6260035244988,48.5196915658552,0
"B","FABCO1D10-06",15,310,260,30,230,50,0,250,60,250,60,44.965255404016,49.2272646252416,0
"B","FABCO1D10-06",20,330,270,50,230,50,0,260,70,260,70,45.5060002703606,53.6711809514321,0
"B","FABCO1D10-07",0,510,430,20,170,320,10,450,30,450,60,32.1344113398217,41.3619261338244,0
"B","FABCO1D10-07",1,300,630,20,160,120,10,250,20,250,50,38.7046724138917,35.2970108302346,0
"B","FABCO1D10-07",2,120,780,20,70,30,10,100,20,100,20,48.3343132084582,22.0182212498209,0
"B","FABCO1D10-07",3,70,850,10,30,30,10,60,10,60,10,49.0971049481099,13.2525572817563,0
"B","FABCO1D10-07",5,50,850,0,30,20,0,50,0,50,0,39.1589325697216,6.02173411256621,0
"B","FABCO1D10-07",10,10,560,0,10,0,0,10,0,10,0,44.3,1.54133604168586,0
"B","FABCO1D10-07",15,10,310,0,0,10,0,10,0,10,0,29.3,0.674256469295075,0
"B","FABCO1D10-07",20,10,210,0,10,0,0,10,0,10,0,30.5,0.730616641500476,0
"B","FABCO1D10-08",0,700,200,40,130,530,10,520,70,580,120,29.8845445004604,49.0999672909181,0
"B","FABCO1D10-08",1,190,630,0,50,140,0,130,10,160,30,26.3984848050035,10.3992371700599,0
"B","FABCO1D10-08",2,200,640,20,60,120,10,130,40,140,60,35.95559066404,20.3073255986391,0
"B","FABCO1D10-08",3,150,580,0,70,80,0,110,20,110,40,30.6772228208487,11.0869789258205,0
"B","FABCO1D10-08",5,150,580,0,70,80,0,110,20,110,40,31.1169514359403,11.4070993632396,0
"B","FABCO1D10-08",10,120,300,0,80,40,0,80,20,80,40,34.6028298457414,11.2848128691987,0
"B","FABCO1D10-08",15,120,230,0,70,50,0,90,20,90,30,34.0158663959433,10.9052142288654,0
"B","FABCO1D10-08",20,110,110,0,70,40,0,80,20,80,30,36.8438103843286,11.7276674776119,0
"B","FABCO1D10-09",0,650,160,90,200,360,20,350,240,390,260,41.1434694322571,86.4181688787295,NA
"B","FABCO1D10-09",5,660,160,100,200,360,20,370,230,410,250,41.8143751561227,90.6327253792631,NA
"B","FABCO1D10-11",0,400,110,50,140,210,40,300,40,320,80,46.4280087877996,67.7189146037201,NA
"B","FABCO1D10-11",2,360,150,50,120,190,40,260,40,280,80,48.2806120508015,65.9079670805032,NA
"B","FABCO1D10-11",5,350,140,50,120,180,40,250,40,270,80,49.0080110069481,66.0225174026347,NA
"B","FABCO1D10-13",0,360,130,10,90,260,0,350,10,350,10,27.7065425486472,21.7048630905885,NA
"B","FABCO1D10-13",1,280,130,10,80,190,0,270,10,270,10,28.8066708544095,18.2487891583928,NA
"B","FABCO1D10-13",2,280,130,10,90,180,0,270,10,270,10,29.2976047290072,18.87609452548,NA
"B","FABCO1D10-13",3,270,130,10,80,180,0,260,10,260,10,29.5552025877002,18.5234350421512,NA
"B","FABCO1D10-13",5,300,130,10,80,210,0,290,10,290,10,29.3413360295676,20.2848082332945,NA
"B","FABCO1D10-13",10,280,90,10,90,180,0,270,10,270,10,30.8432615933251,20.9203288651708,NA
"B","FABCO1D10-13",20,250,100,10,100,140,0,250,0,250,0,32.7494977060718,21.059069450735,NA
"B","FABCO1D10-14",0,400,400,50,50,300,20,310,90,310,90,36.8638678111779,42.6925084323442,NA
"B","FABCO1D10-14",2,340,420,50,30,260,20,260,80,260,80,39.1823677331586,40.9968180896058,NA
"B","FABCO1D10-14",5,320,300,50,30,240,20,250,70,250,70,40.7250728974179,41.6834445799744,NA
"B","FABCO1D10-14",10,340,300,50,40,250,30,270,70,270,70,41.1371343621479,45.1894305654541,NA
"B","FABCO1D10-15",0,460,580,0,100,360,0,400,60,400,60,25.909642321294,24.2532837812724,NA
"B","FABCO1D10-16",0,650,320,20,60,570,0,400,100,550,100,27.456023578975,38.4838502720177,NA
"B","FABCO1D10-16",2,640,330,30,50,560,0,400,100,540,100,27.6889874318293,38.5375413471046,NA
"B","FABCO1D10-16",5,570,300,30,70,470,0,340,90,480,90,28.5290157005478,36.4366392732876,NA
"B","FABCO1D10-16",10,520,350,30,80,410,0,300,90,430,90,29.9813275223096,36.7108924579643,NA
"B","FABCO1D10-18",0,710,470,100,300,310,40,430,250,450,260,41.6997939671338,96.9652336911041,0
"B","FABCO1D10-18",1,390,720,80,260,50,40,200,180,210,180,50.0827289950312,76.8299338521939,0
"B","FABCO1D10-18",2,420,670,90,280,50,40,210,210,210,210,49.7518269585579,81.6501972703212,0
"B","FABCO1D10-18",3,390,660,80,270,40,40,200,190,200,190,50.2530774666766,77.353472413933,0
"B","FABCO1D10-18",5,340,700,80,220,40,40,200,140,200,140,51.5466693167178,70.9528779353071,0
"B","FABCO1D10-18",10,300,470,70,210,20,40,190,110,190,110,52.7640692138125,65.5975620183653,0
"B","FABCO1D10-18",15,260,310,80,170,10,40,160,100,160,100,55.4543748707682,62.7964159066634,0
"B","FABCO1D10-18",20,280,220,80,190,10,50,160,120,160,120,57.2018887050819,71.9562712129372,0
"B","FABCO1D10-24",0,410,200,100,160,150,70,300,60,340,70,53.2028080131848,91.1470983444353,0
"B","FABCO1D10-24",1,390,200,100,180,110,70,290,50,330,60,55.6100018674007,94.7240607619413,0
"B","FABCO1D10-24",2,350,210,100,180,70,70,260,50,290,60,58.249762721773,93.2709170800233,0
"B","FABCO1D10-24",3,320,230,100,170,50,70,240,40,270,50,60.2472976572394,91.2252376077118,0
"B","FABCO1D10-24",5,340,210,100,180,60,70,250,50,280,60,59.0760900175757,93.1949298077146,0
"B","FABCO1D10-24",10,330,140,90,180,60,80,250,50,280,50,59.5716044823879,91.9776726101914,0
"B","FABCO1D10-24",15,330,80,90,210,30,80,250,50,280,50,61.4064748338085,97.7309576305084,0
"B","FABCO1D10-24",20,330,50,90,210,30,90,240,50,280,50,63.3888911020812,104.143011068338,0
"B","FABCO1D10-25",0,620,320,50,230,340,20,300,230,340,280,37.6689141969103,69.0951835134048,NA
"B","FABCO1D10-25",1,560,250,60,210,290,30,250,230,280,280,39.7474190536766,69.4857541660807,NA
"B","FABCO1D10-25",2,510,290,60,220,230,20,230,220,240,270,41.1890405183652,67.9553115969211,NA
"B","FABCO1D10-25",3,500,290,70,200,230,30,230,200,250,250,41.7381911443225,68.4111881068835,NA
"B","FABCO1D10-25",5,490,300,70,220,200,30,220,220,230,260,42.5228222036504,69.5873218565712,NA
"B","FABCO1D10-25",10,450,160,70,230,150,30,190,200,210,240,45.105468995825,71.9052831641694,NA
"B","FABCO1D10-25",20,230,50,70,130,30,30,20,150,40,190,55.6171892415504,55.8773486844523,NA
"B","FABCO1D10-26",0,580,40,20,270,290,20,490,60,520,60,36.9070640841336,62.0492980497499,0
"B","FABCO1D10-26",1,570,30,20,270,280,20,490,60,510,60,38.0254854519919,64.7312914060828,0
"B","FABCO1D10-26",2,520,70,20,290,210,20,450,50,470,50,39.1827596507208,62.7022702288169,0
"B","FABCO1D10-26",3,520,90,20,290,210,20,460,50,470,50,38.6871152273646,61.1259918228415,0
"B","FABCO1D10-26",5,540,100,20,290,230,20,480,50,490,50,38.5052112875166,62.8814666737777,0
"B","FABCO1D10-26",10,440,60,20,280,140,20,380,50,390,50,42.0058680965583,60.9764991364204,0
"B","FABCO1D10-26",15,470,70,30,260,180,20,410,50,420,50,41.5437477693504,63.7087501212291,0
"B","FABCO1D10-26",20,490,60,30,260,200,20,430,50,440,50,41.8977131517573,67.5564157237132,0
"B","FABCO1D10-28",0,470,40,70,140,260,50,370,100,370,100,43.9600447214842,71.3352176152306,NA
"B","FABCO1D10-28",1,460,40,60,170,230,40,360,100,360,100,44.1597593723753,70.4532626016251,NA
"B","FABCO1D10-28",2,390,60,50,140,200,40,320,70,320,70,45.2214097241107,62.6386922474899,NA
"B","FABCO1D10-28",5,380,110,50,140,190,30,310,70,310,70,44.8756615550122,60.1028693433469,NA
"B","FABCO1D10-28",10,370,130,40,170,160,30,300,70,300,70,44.6508587732553,57.9363642175783,NA
"B","FABCO1D10-28",20,310,40,60,170,80,30,240,70,240,70,48.8286173362276,58.0497600044096,NA
"B","FABCO1D10-30",0,690,140,70,260,360,10,450,240,450,240,36.713076689376,73.0433251029323,NA
"B","FABCO1D10-30",1,480,320,60,250,170,10,290,190,290,190,40.5323790320776,61.9348812453062,NA
"B","FABCO1D10-30",2,340,450,70,150,120,10,240,100,240,100,43.8282980034857,51.2953515071549,NA
"B","FABCO1D10-30",10,360,190,60,190,110,10,250,110,250,110,45.3490658975218,58.1472357704689,NA
"B","FABCO1D10-30",20,310,200,60,170,80,0,210,100,210,100,46.0444175454178,51.618519289448,NA
"B","FABCO1D10-40",0,550,340,20,160,370,10,420,70,470,80,32.232383490126,44.8784050387671,0
"B","FABCO1D10-40",1,320,510,20,150,150,10,210,70,240,80,39.6246687683317,39.4612782863658,0
"B","FABCO1D10-40",2,260,570,20,120,120,10,180,60,200,60,42.0385034133087,36.0875769135472,0
"B","FABCO1D10-40",3,260,600,20,120,120,10,180,60,200,60,41.7133072292284,35.5314129121006,0
"B","FABCO1D10-40",5,220,630,20,100,100,10,160,50,170,50,44.0086355162257,33.4648104327161,0
"B","FABCO1D10-40",10,210,290,30,130,50,10,160,40,170,40,45.9031485588848,34.7531461640268,0
"B","FABCO1D10-40",15,240,180,30,160,50,10,160,40,200,40,45.2408381608918,38.5800163866395,0
"B","FABCO1D10-40",20,230,120,30,140,60,10,140,50,180,50,52.1840253334294,49.1918176426321,0
"B","FABCO1D10-45",0,650,240,0,130,520,0,650,0,650,0,26.1818375097054,34.9947974709409,NA
"B","FABCO1D10-45",1,260,490,0,120,140,0,260,0,260,0,31.7274874759799,20.5558098695748,NA
"B","FABMA1D10-01",0,730,320,20,220,490,20,310,10,720,10,29.7436536341259,50.722584188534,-10.7889283954409
"B","FABMA1D10-01",1,510,430,20,190,300,10,240,10,500,10,32.2609428159276,41.6882983406242,-10.7889283954409
"B","FABMA1D10-01",2,400,530,20,160,220,10,190,10,390,10,33.9055747628616,36.1153721545498,-10.7889283954409
"B","FABMA1D10-01",3,390,550,20,150,220,10,190,10,380,10,34.0829907198628,35.5819611378968,-10.7889283954409
"B","FABMA1D10-01",5,360,570,10,160,190,0,170,10,350,10,32.1906257921291,29.2988936404417,-10.7889283954409
"B","FABMA1D10-01",10,280,360,10,140,130,10,160,10,270,10,34.8864689283068,26.7646729485521,-10.7889283954409
"B","FABMA1D10-01",15,270,270,10,150,110,10,170,10,260,10,35.8191082875959,27.2071584198286,-10.7889283954409
"B","FABMA1D10-01",20,240,200,10,130,100,10,170,10,230,10,35.8839637465911,24.2717975794791,-10.7889283954409
"B","FPIJE1D05-01",0,340,80,10,160,170,0,260,60,270,70,34.8087252415422,32.3552705933029,NA
"B","FPIJE1D05-01",1,320,30,10,160,150,0,250,50,260,60,36.3304710263988,33.1727836876017,NA
"B","FPIJE1D05-01",2,320,50,10,160,150,0,250,50,260,60,36.6056049328515,33.6771271182274,NA
"B","FPIJE1D05-01",3,330,40,10,160,160,0,260,50,270,60,36.436665682532,34.409715109118,NA
"B","FPIJE1D05-01",5,320,50,10,160,150,0,250,50,260,60,37.0912809835411,34.5766986126379,NA
"B","FPIJE1D05-01",10,290,50,10,140,140,0,220,50,230,60,38.5628461533673,33.8708455752293,NA
"B","FPIJE1D05-01",20,280,20,10,160,110,0,210,50,220,60,38.2190350853752,32.1223529139658,NA
"B","FPIJE1D05-05",0,360,20,30,70,260,30,220,20,250,110,41.2026091406843,48.0000642869698,NA
"B","FPIJE1D05-05",1,350,30,30,60,260,30,230,20,260,90,41.6051816827801,47.5831042560038,NA
"B","FPIJE1D05-05",2,330,20,30,80,220,30,200,20,230,100,42.5660235826224,46.9602049726132,NA
"B","FPIJE1D05-05",3,340,40,20,80,240,20,210,20,230,110,34.3761331364039,31.5560651301929,NA
"B","FPIJE1D05-05",5,350,40,20,90,240,20,220,20,240,110,34.7612510049419,33.2161062502947,NA
"B","FPIJE1D05-05",10,370,10,20,110,240,20,240,20,260,110,35.5122514070848,36.6478092774802,NA
"B","FPIJE1D05-05",20,400,0,20,120,260,20,280,20,300,100,37.0112415355119,43.0345414785221,NA
"B","FPIJE1D09-01",0,400,190,30,180,190,10,220,150,250,150,36.0142888309626,40.7473677789292,NA
"B","FPIJE1D09-01",1,390,200,30,190,170,10,210,150,240,150,36.5288119511722,40.8719711975522,NA
"B","FPIJE1D09-01",2,360,230,30,190,140,10,200,140,220,140,37.8931832040188,40.598927526047,NA
"B","FPIJE1D09-01",5,330,240,30,170,130,10,170,140,190,140,38.9876437302431,39.3965143538121,NA
"B","FPIJE1D09-02",0,380,20,30,190,160,20,190,180,200,180,41.2161216541601,50.6999725754098,NA
"B","FPIJE1D09-02",1,350,50,30,190,130,20,180,160,190,160,42.725365500401,50.1798662036447,NA
"B","FPIJE1D09-02",2,340,60,30,210,100,20,170,160,180,160,43.4766874651367,50.4756235900353,NA
"B","FPIJE1D09-02",5,340,50,30,220,90,30,170,160,180,160,44.0886306539586,51.9065326499475,NA
"B","FPIJE1D09-03",0,620,110,70,60,490,70,560,60,560,60,42.5338669616304,88.0950096655463,-1.00164933545259
"B","FPIJE1D09-03",1,480,200,70,60,350,70,420,60,420,60,47.6013327019318,85.4219227243864,-1.00164933545259
"B","FPIJE1D09-03",2,450,250,70,70,310,70,390,60,390,60,49.0594446677815,85.0643623565181,-1.00164933545259
"B","FPIJE1D09-03",3,450,250,70,70,310,70,390,60,390,60,48.9657975870233,84.7399222292002,-1.00164933545259
"B","FPIJE1D09-03",5,440,250,70,70,300,70,380,60,380,60,49.734979459312,85.4803799096881,-1.00164933545259
"B","FPIJE1D09-03",10,380,240,70,140,170,70,320,60,320,60,53.696910133589,86.0541996618479,-1.00164933545259
"B","FPIJE1D09-03",15,390,220,70,180,140,70,330,60,330,60,54.7407058028564,91.7857527149836,-1.00164933545259
"B","FPIJE1D09-03",20,370,150,70,180,120,70,310,60,310,60,55.9185387235126,90.8663813328738,-1.00164933545259
"B","FPILA1D09-01",0,320,10,210,70,40,150,40,100,100,220,91.5254011873207,210.534436436906,NA
"B","FPILA1D09-01",1,310,20,220,60,30,150,40,90,100,210,92.4163684705817,207.945426369138,NA
"B","FPILA1D09-01",2,300,30,220,70,10,150,20,100,80,220,93.6782134045407,206.770384322897,NA
"B","FPILA1D09-01",3,300,30,220,70,10,150,20,100,80,220,94.3415020020351,209.708825887542,NA
"B","FPILA1D09-01",5,290,40,220,70,0,150,20,90,80,210,95.4821232591157,207.650038119884,NA
"B","FPILA1D09-01",10,150,0,90,60,0,70,10,70,20,130,79.4323695563297,74.3320613873063,NA
"B","FPILA1D09-01",20,160,0,100,50,10,70,20,70,30,130,79.7686576921036,79.9603031660287,NA
"C","FABCO1D10-01",0,720,290,20,220,480,10,530,160,550,170,29.3093723159599,48.5775282866078,-1.67411581297376
"C","FABCO1D10-01",2,710,300,20,220,470,10,520,160,540,170,30.0290000677749,50.2840178540929,-1.67411581297376
"C","FABCO1D10-01",5,700,270,20,230,450,10,520,150,540,160,30.897935668446,52.4864078219471,-1.67411581297376
"C","FABCO1D10-01",10,660,310,20,270,370,10,490,150,500,160,32.3582596827606,54.2755369841848,-1.67411581297376
"C","FABCO1D10-01",15,680,320,20,260,400,10,520,130,540,140,32.9349023699425,57.931070633957,-1.67411581297376
"C","FABCO1D10-01",20,620,340,20,240,360,10,460,140,470,150,34.2017967835874,56.961237419849,-1.67411581297376
"C","FABCO1D10-10",0,870,20,20,150,700,10,760,60,780,90,26.6725503566632,48.6114103633768,0
"C","FABCO1D10-10",3,850,40,20,170,660,10,750,60,770,80,27.4079936815349,50.1491178655477,0
"C","FABCO1D10-10",5,920,40,20,180,720,10,820,60,840,80,26.9237308449014,52.3779129196554,0
"C","FABCO1D10-10",10,950,40,20,190,740,10,830,60,870,80,27.6221878778256,56.9284863164353,0
"C","FABCO1D10-10",15,980,60,30,170,780,20,850,60,900,80,28.9848658609901,64.6634015888387,0
"C","FABCO1D10-10",20,1040,40,30,190,820,20,910,50,960,80,28.9015703592516,68.2285437639855,0
"C","FABCO1D10-12",0,590,140,30,100,460,30,440,130,460,130,32.0861789771847,47.7065374313633,NA
"C","FABCO1D10-12",2,590,140,30,100,460,30,440,130,460,130,32.4323886031923,48.7415979629415,NA
"C","FABCO1D10-12",5,570,140,20,140,410,20,420,130,440,130,31.2362952404871,43.6801152068899,NA
"C","FABCO1D10-12",10,530,210,20,160,350,20,390,120,410,120,31.5920338657324,41.5452066492348,NA
"C","FABCO1D10-12",20,380,210,20,140,220,20,260,100,280,100,35.5110027426638,37.6356438174934,NA
"C","FABCO1D10-19",0,430,340,10,200,220,0,340,0,430,0,32.6315299087561,35.9611199552586,0
"C","FABCO1D10-19",10,260,240,0,170,90,0,170,0,260,0,37.2230646033013,28.2935525753665,0
"C","FABCO1D10-19",15,360,230,10,170,180,0,230,0,330,30,34.4922203789009,33.6383501259448,0
"C","FABCO1D10-19",20,360,150,20,180,160,0,220,0,320,40,36.1772757097294,37.0053146674771,0
"C","FABCO1D10-20",0,420,50,40,190,190,20,400,20,400,20,47.3583552240131,73.9830775673822,0
"C","FABCO1D10-20",10,390,80,50,200,140,30,370,20,370,20,51.567086004295,81.4516093447061,0
"C","FABCO1D10-20",15,390,100,80,180,130,40,370,20,370,20,53.5371258675122,87.7939508415528,0
"C","FABCO1D10-20",20,370,50,90,160,120,40,350,20,350,20,55.7012858311479,90.1616906847471,0
"C","FABCO1D10-21",0,610,610,40,330,240,10,380,200,390,220,42.8423205047242,87.9357937498624,-8.51994282922362
"C","FABCO1D10-21",15,460,260,40,250,170,10,310,120,320,140,49.3021672510669,87.8172300431159,-8.51994282922362
"C","FABCO1D10-21",20,390,220,40,210,140,10,270,100,280,110,51.2124834541195,80.3352522492347,-8.51994282922362
"C","FABCO1D10-22",0,740,350,0,260,480,0,720,20,720,20,29.6590626959113,51.1253677826507,-37.9118681918901
"C","FABCO1D10-22",3,700,370,0,250,450,0,680,20,680,20,30.1595187532655,50.0076833642831,-37.9118681918901
"C","FABCO1D10-22",15,600,280,20,280,300,0,580,20,580,20,33.1896193610794,51.9093600833357,-37.9118681918901
"C","FABCO1D10-22",20,390,250,10,170,210,0,390,0,390,0,32.4376877989722,32.2295519092879,-37.9118681918901
"C","FABCO1D10-23",0,520,210,20,220,280,10,410,10,510,10,37.0745999511588,56.1366086181898,-8.32713697429389
"C","FABCO1D10-23",15,450,280,20,200,230,10,290,10,440,10,37.9973537090268,51.0280648041874,-8.32713697429389
"C","FABCO1D10-23",20,380,160,20,170,190,10,260,0,380,0,39.590246672368,46.7788879526113,-8.32713697429389
"C","FABCO1D10-31",0,750,90,10,360,380,0,370,380,370,380,35.2867945082387,73.3458526214914,NA
"C","FABCO1D10-32",0,1090,330,30,430,630,10,820,240,850,240,32.497212301049,90.4083606859254,NA
"C","FABCO1D10-33",0,600,130,70,390,140,10,450,150,450,150,42.5785626812367,85.4325020376474,NA
"C","FABCO1D10-33",20,470,140,70,290,110,20,360,110,360,110,47.4837306964297,83.2295230211706,NA
"C","FABCO1D10-36",0,320,160,40,90,190,10,210,100,220,100,40.5337590780821,41.2927325556291,NA
"C","FABCO1D10-36",15,310,60,60,80,170,30,200,100,210,100,44.0929992248788,47.3359237460193,NA
"C","FABCO1D10-37",0,420,30,40,120,260,10,300,0,410,10,36.8804987829095,44.8675901060571,NA
"C","FABCO1D10-37",15,410,50,50,160,200,10,310,0,400,10,39.4853075484429,50.2047476174612,NA
"C","FABCO1D10-38",0,770,100,20,280,470,10,570,180,590,180,30.9207575384764,57.8203687628261,NA
"C","FABCO1D10-38",15,670,170,10,230,430,10,460,190,480,190,31.4865951103289,52.1694289771815,NA
"C","FABCO1D10-41",0,620,350,10,220,390,0,300,20,520,100,32.6300499737638,51.8462140709986,0
"C","FABCO1D10-41",1,620,330,10,220,390,0,300,20,520,100,32.707982156871,52.0941642711831,0
"C","FABCO1D10-41",2,610,320,10,220,380,0,310,20,520,90,33.4436398913206,53.585439033934,0
"C","FABCO1D10-41",3,610,320,10,230,370,0,310,20,510,100,33.2295764959224,52.9016635388986,0
"C","FABCO1D10-41",5,610,340,20,230,360,0,310,20,510,100,34.0009691279432,55.3862941907513,0
"C","FABCO1D10-41",10,560,230,30,240,290,0,270,20,470,90,36.2994047570244,57.9531324683669,0
"C","FABCO1D10-41",15,610,210,30,290,290,0,300,20,510,100,36.58884762454,64.1382608148463,0
"C","FABCO1D10-41",20,620,140,40,300,280,10,280,20,520,100,36.8070995956644,65.9697386460544,0
"C","FABCO1D10-42",0,620,320,60,140,420,30,420,10,520,100,37.5989318654048,68.8386881812024,NA
"C","FABCO1D10-42",10,540,230,60,180,300,50,350,10,440,100,41.4146310700297,72.7430045532124,NA
"C","FABCO1D10-42",15,590,200,50,200,340,30,410,10,500,90,38.2952933338475,67.9567645835234,NA
"C","FPICO1D10-02",0,530,290,0,140,390,0,330,0,330,200,25.5260688058159,27.1227438252266,NA
"C","FPICO1D10-02",15,620,120,0,180,440,0,440,0,440,180,27.9373348302832,38.005943343572,NA
"C","FPIJE1D05-02",0,650,200,20,300,330,10,130,490,150,500,33.9020875236546,58.6754081813721,NA
"C","FPIJE1D05-02",5,590,250,20,300,270,10,120,440,140,450,35.6683689334525,58.9533370294535,NA
"C","FPIJE1D05-02",20,510,90,20,270,220,20,120,360,140,370,38.8962672739061,60.6004583497674,NA
"C","FPIJE1D05-03",0,330,180,20,150,160,0,300,30,300,30,34.6129639402244,31.0514153942835,0
"C","FPIJE1D05-03",2,370,150,20,160,190,0,340,30,340,30,34.035978579113,33.6641837564946,0
"C","FPIJE1D05-03",3,370,150,20,160,190,0,340,30,340,30,34.5752176518916,34.7393310103326,0
"C","FPIJE1D05-03",5,370,150,20,160,190,0,340,30,340,30,35.3747161195753,36.3644925979979,0
"C","FPIJE1D05-03",10,380,120,20,150,210,0,350,30,350,30,35.5226502982326,37.6603367357506,0
"C","FPIJE1D05-03",15,400,100,20,170,210,10,360,40,360,40,35.9427983050847,40.5857563988469,0
"C","FPIJE1D05-03",20,390,120,20,170,200,10,350,40,350,40,36.7764835674884,41.428088075109,0
"C","FPIJE1D05-04",0,450,110,0,130,320,0,280,170,280,170,29.9877271192363,31.7826053764433,NA
"C","FPIJE1D05-04",20,340,110,0,140,200,0,290,40,300,40,31.0277153146515,25.7080061134988,NA
"C","FPIJE1D05-06",0,490,80,0,150,340,0,310,180,310,180,28.1583061294822,30.5139909930156,NA
"C","FPIJE1D05-06",15,440,130,0,210,230,0,220,220,220,220,31.0396520599056,33.2947874383038,NA
"C","FPIJE1D05-07",0,530,80,20,120,390,20,150,380,150,380,33.5855202402958,46.9537097298019,NA
"C","FPIJE1D05-07",15,450,70,20,140,290,20,50,400,50,400,34.9448835867125,43.1588228838981,NA
"C","FPIJE1D05-08",0,370,90,0,160,210,0,310,50,320,50,31.0312876112289,27.9828019380366,NA
"C","FPIJE1D05-08",15,380,130,0,240,140,0,300,60,320,60,34.8794012502931,36.3087685983048,NA
"C","FPIJE1D05-12",0,510,150,30,210,270,10,420,40,440,70,37.0520381276356,54.9900686712989,NA
"C","FPIJE1D05-12",15,470,170,50,180,240,10,380,40,400,70,38.7117498244149,55.3188756124053,NA
"C","FPIJE1D06-08",0,350,30,20,100,230,0,200,130,220,130,35.4398887453913,34.5257105638701,NA
"C","FPIJE1D06-08",15,340,30,30,90,220,0,190,140,200,140,39.022957044163,40.6639113700865,NA
