system:index,elevation,mukey,northness,plot_name,plot_type,slope,tpi_1000,tpi_300,.geo
29,1985.8226318359375,1652146.0,-0.8910065241883678,FABCO1D10-31,C,5.0,18.0606689453125,15.8067626953125,"{""geodesic"":true,""type"":""Point"",""coordinates"":[-120.124814,39.189258]}"
30,2036.8134765625,1652146.0,-0.9876883405951378,FABCO1D10-32,C,5.0,5.1263427734375,0.5968017578125,"{""geodesic"":true,""type"":""Point"",""coordinates"":[-120.124774,39.19768]}"
31,2023.5201416015625,1652092.0,-0.6946583704589974,FABCO1D10-33,C,2.0,2.783447265625,0.790283203125,"{""geodesic"":true,""type"":""Point"",""coordinates"":[-120.126733,39.195297]}"
28,2005.8673095703125,1652092.0,-0.9702957262759966,FABCO1D10-30,B,3.0,8.193603515625,0.4127197265625,"{""geodesic"":true,""type"":""Point"",""coordinates"":[-120.124689,39.192873]}"
32,2064.029541015625,1652146.0,-0.29237170472273666,FABCO1D10-36,C,7.0,10.291259765625,3.151123046875,"{""geodesic"":true,""type"":""Point"",""coordinates"":[-120.14326,39.190216]}"
34,2055.642578125,1652146.0,-0.9135454576426009,FABCO1D10-38,C,4.0,-2.768310546875,4.406982421875,"{""geodesic"":true,""type"":""Point"",""coordinates"":[-120.137737,39.19952]}"
33,2086.821044921875,1652092.0,-0.8660254037844387,FABCO1D10-37,C,8.0,1.34033203125,-1.5009765625,"{""geodesic"":true,""type"":""Point"",""coordinates"":[-120.14821,39.191661]}"
49,2004.8602294921875,1652146.0,-1.0,FPIJE1D05-12,C,5.0,18.8902587890625,3.6407470703125,"{""geodesic"":true,""type"":""Point"",""coordinates"":[-120.139435,39.181434]}"
50,1992.2000732421875,1652146.0,-0.9945218953682733,FPIJE1D06-08,C,5.0,25.1573486328125,-1.6292724609375,"{""geodesic"":true,""type"":""Point"",""coordinates"":[-120.135907,39.181217]}"
41,2059.54638671875,1652150.0,-0.5446390350150271,FPIJE1D05-01,B,15.0,46.979248046875,7.283447265625,"{""geodesic"":true,""type"":""Point"",""coordinates"":[-120.150294,39.049156]}"
52,2048.247314453125,1652117.0,-0.25881904510252085,FPIJE1D09-02,B,8.0,30.0650634765625,-7.75146484375,"{""geodesic"":true,""type"":""Point"",""coordinates"":[-120.152185,39.04632]}"
51,2046.93115234375,1652149.0,-0.7986355100472929,FPIJE1D09-01,B,7.0,31.2728271484375,-2.171142578125,"{""geodesic"":true,""type"":""Point"",""coordinates"":[-120.151433,39.046783]}"
27,2015.330078125,1652151.0,-0.7431448254773941,FABCO1D10-28,B,21.0,-1.2374267578125,-2.22998046875,"{""geodesic"":true,""type"":""Point"",""coordinates"":[-120.152098,39.044322]}"
21,2000.7257080078125,1652150.0,-0.5735764363510462,FABCO1D10-21,C,12.0,-21.60498046875,-8.2034912109375,"{""geodesic"":true,""type"":""Point"",""coordinates"":[-120.154429,39.042014]}"
23,2019.3134765625,1652151.0,-0.6427876096865394,FABCO1D10-23,C,16.0,-6.6116943359375,-6.725341796875,"{""geodesic"":true,""type"":""Point"",""coordinates"":[-120.155213,39.042421]}"
42,2041.851318359375,1652151.0,-0.6156614753256583,FPIJE1D05-02,C,22.0,14.7733154296875,-7.78515625,"{""geodesic"":true,""type"":""Point"",""coordinates"":[-120.154982,39.043469]}"
46,2101.045654296875,1652117.0,-0.6560590289905072,FPIJE1D05-06,C,24.0,68.71923828125,20.034423828125,"{""geodesic"":true,""type"":""Point"",""coordinates"":[-120.156285,39.0446]}"
47,2102.60400390625,1652117.0,-0.7193398003386513,FPIJE1D05-07,C,22.0,63.925537109375,15.17236328125,"{""geodesic"":true,""type"":""Point"",""coordinates"":[-120.157884,39.043558]}"
19,2014.46435546875,1652150.0,-0.40673664307580026,FABCO1D10-19,C,8.0,-23.72265625,-5.3682861328125,"{""geodesic"":true,""type"":""Point"",""coordinates"":[-120.158695,39.038785]}"
20,2001.17138671875,1652150.0,-0.5299192642332048,FABCO1D10-20,C,11.0,-28.6971435546875,-7.8358154296875,"{""geodesic"":true,""type"":""Point"",""coordinates"":[-120.156514,39.040228]}"
22,1982.9588623046875,1652147.0,-0.4694715627858909,FABCO1D10-22,C,10.0,-35.6766357421875,-9.43505859375,"{""geodesic"":true,""type"":""Point"",""coordinates"":[-120.153183,39.041795]}"
40,1979.6551513671875,1652115.0,0.4226182617406996,FPICO1D10-02,C,6.0,-42.5472412109375,-11.813232421875,"{""geodesic"":true,""type"":""Point"",""coordinates"":[-120.148916,39.037276]}"
53,1958.2855224609375,1652116.0,0.9205048534524403,FPIJE1D09-03,B,5.0,-31.1556396484375,-10.373046875,"{""geodesic"":true,""type"":""Point"",""coordinates"":[-120.138388,39.044738]}"
24,1972.9708251953125,1652149.0,-0.1908089953765448,FABCO1D10-24,B,9.0,-17.315185546875,-1.30029296875,"{""geodesic"":true,""type"":""Point"",""coordinates"":[-120.142521,39.049561]}"
26,1968.114990234375,1652149.0,-0.37460659341591207,FABCO1D10-26,B,10.0,-21.3531494140625,-3.7950439453125,"{""geodesic"":true,""type"":""Point"",""coordinates"":[-120.142056,39.049657]}"
25,1987.076171875,1652150.0,-0.898794046299167,FABCO1D10-25,B,16.0,-3.4432373046875,1.9324951171875,"{""geodesic"":true,""type"":""Point"",""coordinates"":[-120.142642,39.050838]}"
39,1952.571533203125,1652112.0,0.9205048534524404,FABMA1D10-01,B,3.0,-17.84130859375,5.3375244140625,"{""geodesic"":true,""type"":""Point"",""coordinates"":[-120.135503,39.048357]}"
35,1942.566650390625,1652112.0,0.37460659341591196,FABCO1D10-40,B,6.0,-20.8363037109375,-4.3236083984375,"{""geodesic"":true,""type"":""Point"",""coordinates"":[-120.133688,39.048988]}"
18,1954.508056640625,1652112.0,0.8571673007021121,FABCO1D10-18,B,5.0,-3.7796630859375,7.1287841796875,"{""geodesic"":true,""type"":""Point"",""coordinates"":[-120.132238,39.049389]}"
7,1955.156982421875,1652112.0,0.8746197071393957,FABCO1D10-06,B,3.0,-1.7711181640625,7.45703125,"{""geodesic"":true,""type"":""Point"",""coordinates"":[-120.131717,39.049322]}"
11,1954.1630859375,1652112.0,-0.034899496702500955,FABCO1D10-10,C,7.0,-4.332275390625,1.310302734375,"{""geodesic"":true,""type"":""Point"",""coordinates"":[-120.131351,39.048421]}"
8,1948.338623046875,1652148.0,0.7986355100472928,FABCO1D10-07,B,2.0,-6.029541015625,0.2587890625,"{""geodesic"":true,""type"":""Point"",""coordinates"":[-120.130003,39.04873]}"
9,1942.89697265625,1652147.0,0.3583679495453004,FABCO1D10-08,B,2.0,-6.8590087890625,2.3260498046875,"{""geodesic"":true,""type"":""Point"",""coordinates"":[-120.128925,39.049659]}"
6,1938.86328125,1652147.0,-0.45399049973954675,FABCO1D10-05,B,1.0,-2.17138671875,3.071533203125,"{""geodesic"":true,""type"":""Point"",""coordinates"":[-120.125637,39.04997]}"
37,1915.15380859375,1652147.0,0.6819983600624985,FABCO1D10-42,C,1.0,4.5906982421875,-0.4300537109375,"{""geodesic"":true,""type"":""Point"",""coordinates"":[-120.117897,39.060324]}"
2,1931.616455078125,1652147.0,0.9993908270190958,FABCO1D10-01,C,2.0,7.555419921875,1.9703369140625,"{""geodesic"":true,""type"":""Point"",""coordinates"":[-120.120238,39.04899]}"
3,1943.295654296875,1652112.0,0.9455185755993168,FABCO1D10-02,B,8.0,21.2938232421875,10.377197265625,"{""geodesic"":true,""type"":""Point"",""coordinates"":[-120.11997,39.046969]}"
10,1913.6727294921875,1652147.0,0.5299192642332049,FABCO1D10-09,B,1.0,7.4864501953125,5.5723876953125,"{""geodesic"":true,""type"":""Point"",""coordinates"":[-120.113953,39.04728]}"
12,1909.213623046875,1652113.0,-0.7880107536067219,FABCO1D10-11,B,12.0,1.9671630859375,2.0205078125,"{""geodesic"":true,""type"":""Point"",""coordinates"":[-120.114593,39.045998]}"
4,1948.2607421875,1652113.0,0.9945218953682733,FABCO1D10-03,B,16.0,10.597412109375,1.892822265625,"{""geodesic"":true,""type"":""Point"",""coordinates"":[-120.124601,39.045935]}"
5,1937.48681640625,1652147.0,-0.3420201433256687,FABCO1D10-04,B,4.0,-2.070556640625,-2.39990234375,"{""geodesic"":true,""type"":""Point"",""coordinates"":[-120.12505,39.047752]}"
36,1957.9912109375,1652112.0,0.656059028990507,FABCO1D10-41,C,5.0,-10.4149169921875,-11.9688720703125,"{""geodesic"":true,""type"":""Point"",""coordinates"":[-120.133203,39.046593]}"
38,1948.012451171875,1652045.0,0.342020143325669,FABCO1D10-45,B,5.0,-25.412353515625,2.8509521484375,"{""geodesic"":true,""type"":""Point"",""coordinates"":[-120.105911,38.992821]}"
45,2037.062255859375,1652046.0,-0.7771459614569708,FPIJE1D05-05,B,17.0,69.9456787109375,9.7349853515625,"{""geodesic"":true,""type"":""Point"",""coordinates"":[-120.099993,38.992127]}"
54,2060.29541015625,1652045.0,-0.9205048534524404,FPILA1D09-01,B,12.0,100.2664794921875,21.4129638671875,"{""geodesic"":true,""type"":""Point"",""coordinates"":[-120.098643,38.992449]}"
44,1952.2845458984375,1652113.0,0.9563047559630353,FPIJE1D05-04,C,10.0,9.859375,-0.9676513671875,"{""geodesic"":true,""type"":""Point"",""coordinates"":[-120.086916,38.954502]}"
16,1936.2559814453125,1652113.0,0.7986355100472928,FABCO1D10-15,B,14.0,1.515869140625,-12.7532958984375,"{""geodesic"":true,""type"":""Point"",""coordinates"":[-120.08509,38.956091]}"
14,1934.4976806640625,1652113.0,0.30901699437494723,FABCO1D10-13,B,21.0,8.0137939453125,-5.765380859375,"{""geodesic"":true,""type"":""Point"",""coordinates"":[-120.083696,38.957983]}"
13,1915.996826171875,1652113.0,0.838670567945424,FABCO1D10-12,C,6.0,-11.3563232421875,-8.1510009765625,"{""geodesic"":true,""type"":""Point"",""coordinates"":[-120.084704,38.95793]}"
15,1914.185302734375,1652113.0,0.7431448254773942,FABCO1D10-14,B,8.0,-16.5714111328125,-1.7689208984375,"{""geodesic"":true,""type"":""Point"",""coordinates"":[-120.086411,38.957083]}"
17,1923.7825927734375,1652113.0,0.8290375725550418,FABCO1D10-16,B,12.0,-9.021240234375,-2.0255126953125,"{""geodesic"":true,""type"":""Point"",""coordinates"":[-120.08608,38.956668]}"
43,2077.91064453125,1652150.0,-0.8290375725550416,FPIJE1D05-03,C,21.0,7.82568359375,-9.44140625,"{""geodesic"":true,""type"":""Point"",""coordinates"":[-120.164056,39.037807]}"
48,2047.24560546875,1652150.0,-0.1564344650402308,FPIJE1D05-08,C,9.0,-4.876953125,-6.645751953125,"{""geodesic"":true,""type"":""Point"",""coordinates"":[-120.161003,39.038571]}"
