plot_type,plot_name,monitoring,sample_year,date_visited,species,dbh,status,tag
B,FABCO1D10-06,00Pre,0,8/11/1992,ABCO,26,L,595
B,FABCO1D10-06,01yr01,1,6/12/1996,ABCO,28,L,595
B,FABCO1D10-06,01yr02,2,7/2/1997,ABCO,28.1,L,595
B,FABCO1D10-06,01yr03,3,7/13/1998,ABCO,28.4,L,595
B,FABCO1D10-06,01yr05,5,5/26/2000,ABCO,28.8,L,595
B,FABCO1D10-06,01yr10,10,8/10/2005,ABCO,30.1,L,595
B,FABCO1D10-06,01yr15,15,8/4/2010,ABCO,31.2,L,595
B,FABCO1D10-06,01yr20,20,7/8/2014,ABCO,15.8,L,595
B,FABCO1D10-06,01yr20,20,7/8/2014,ABCO,38.1,L,595
