plot_type,plot_name,monitoring,sample_year,date_visited,species,dbh,status,tag
B,FABCO1D10-40,01yr15,15,8/18/2010,ABMA,15,L,0
B,FABCO1D10-26,01yr15,15,8/5/2010,ABCO,15,L,0
C,FABCO1D10-10,01yr15,15,8/3/2010,ABMA,15.1,L,0
C,FABCO1D10-01,01yr15,15,10/28/2010,ABCO,15.4,L,0
B,FABCO1D10-40,01yr15,15,8/18/2010,ABMA,15.5,L,0
B,FABCO1D10-26,01yr15,15,8/5/2010,ABCO,15.5,L,0
C,FABCO1D10-21,01yr15,15,10/6/2010,ABCO,15.7,L,0
C,FABCO1D10-01,01yr15,15,10/28/2010,ABCO,15.9,L,0
B,FABCO1D10-04,01yr15,15,10/28/2010,ABCO,15.9,L,0
B,FABCO1D10-08,01yr15,15,8/3/2010,ABCO,16,L,0
C,FABCO1D10-10,01yr15,15,8/3/2010,ABCO,16,L,0
C,FABCO1D10-22,01yr15,15,8/31/2010,ABCO,16,L,0
B,FABCO1D10-08,01yr15,15,8/3/2010,ABCO,16.2,L,0
B,FABCO1D10-04,01yr15,15,10/28/2010,ABCO,16.3,L,0
C,FABCO1D10-01,01yr15,15,10/28/2010,ABCO,16.4,L,0
C,FABCO1D10-01,01yr15,15,10/28/2010,ABCO,16.5,L,0
B,FABCO1D10-04,01yr15,15,10/28/2010,ABCO,16.5,L,0
C,FABCO1D10-20,01yr15,15,9/8/2010,ABCO,16.6,L,0
B,FABCO1D10-24,01yr15,15,8/5/2010,ABCO,16.6,L,0
C,FABCO1D10-01,01yr15,15,10/28/2010,ABCO,16.7,L,0
C,FABCO1D10-01,01yr15,15,10/28/2010,ABMA,16.9,L,0
C,FABCO1D10-23,01yr15,15,10/6/2010,ABCO,16.9,L,0
C,FABCO1D10-10,01yr15,15,8/3/2010,ABCO,17.1,L,0
B,FABMA1D10-01,01yr15,15,10/7/2010,ABCO,17.1,L,0
C,FABCO1D10-21,01yr15,15,10/6/2010,ABCO,17.3,L,0
C,FABCO1D10-10,01yr15,15,8/3/2010,ABCO,17.5,L,0
C,FABCO1D10-10,01yr15,15,8/3/2010,ABCO,17.5,L,0
C,FABCO1D10-22,01yr15,15,8/31/2010,ABCO,17.5,L,0
C,FABCO1D10-01,01yr15,15,10/28/2010,ABCO,17.6,L,0
C,FABCO1D10-01,01yr15,15,10/28/2010,ABCO,17.7,L,0
B,FABCO1D10-04,01yr15,15,10/28/2010,PIJE,17.7,L,0
C,FABCO1D10-10,01yr15,15,8/3/2010,ABCO,17.9,L,0
C,FABCO1D10-01,01yr15,15,10/28/2010,ABCO,18,L,0
C,FABCO1D10-10,01yr15,15,8/3/2010,ABCO,18,L,0
C,FABCO1D10-10,01yr15,15,8/3/2010,ABMA,18,L,0
C,FABCO1D10-23,01yr15,15,10/6/2010,ABCO,18.1,L,0
C,FABCO1D10-23,01yr15,15,10/6/2010,CADE27,18.8,L,0
C,FABCO1D10-23,01yr15,15,10/6/2010,ABCO,19.1,L,0
C,FABCO1D10-01,01yr15,15,10/28/2010,ABCO,19.4,L,0
C,FABCO1D10-21,01yr15,15,10/6/2010,ABCO,19.5,L,0
C,FABCO1D10-23,01yr15,15,10/6/2010,ABCO,19.6,L,0
C,FABCO1D10-01,01yr15,15,10/28/2010,ABCO,19.8,L,0
C,FABCO1D10-23,01yr15,15,10/6/2010,CADE27,20.9,L,0
C,FABCO1D10-23,01yr15,15,10/6/2010,ABCO,21,L,0
C,FABCO1D10-22,01yr15,15,8/31/2010,ABCO,21,L,0
C,FABCO1D10-01,01yr15,15,10/28/2010,ABCO,21.5,L,0
C,FABCO1D10-23,01yr15,15,10/6/2010,ABCO,22.1,L,0
C,FABCO1D10-21,01yr15,15,10/6/2010,PIJE,23.4,L,0
B,FABCO1D10-08,01yr15,15,8/3/2010,ABCO,23.6,L,0
C,FABCO1D10-10,01yr15,15,8/3/2010,ABCO,24,L,0
C,FABCO1D10-01,01yr15,15,10/28/2010,ABCO,24.1,L,0
C,FABCO1D10-10,01yr15,15,8/3/2010,ABCO,26.8,L,0
C,FABCO1D10-21,01yr15,15,10/6/2010,ABCO,27.3,L,0
C,FABCO1D10-01,01yr15,15,10/28/2010,ABCO,30.3,L,0
B,FABMA1D10-01,01yr15,15,10/7/2010,ABMA,30.3,L,0
B,FABCO1D10-04,01yr15,15,10/28/2010,PICO,30.7,L,0
C,FABCO1D10-01,01yr15,15,10/28/2010,ABCO,32.2,L,0
B,FABCO1D10-08,01yr15,15,8/3/2010,PICO,34.9,L,0
C,FABCO1D10-21,01yr15,15,10/6/2010,ABCO,35,L,0
C,FABCO1D10-21,01yr15,15,10/6/2010,PICO,35.3,L,0
C,FABCO1D10-23,01yr15,15,10/6/2010,CADE27,36.1,L,0
