Date,Monitoring Status,MacroPlot Name,Species Symbol,MicroPlotSize,Index,SizeClHt,Status,AgeCl,Count,AvgDia,AvgCrwnRto,SubFrac,Comment,UV1,UV2,UV3,Visited,
7/21/1992 12:00:00 AM,00Pre,C:FABCO1D10:1,,0.005,,,,,,,,,,,,,True,
7/21/1992 12:00:00 AM,00Pre,C:FABCO1D10:1,ABCO,,1,1,L,,22,,,1,,,,,,
7/22/1992 12:00:00 AM,00Pre,B:FABCO1D10:2,,0.005,,,,,,,,,,,,,True,
7/22/1992 12:00:00 AM,00Pre,B:FABCO1D10:2,ABCO,,1,1,L,,5,,,1,,,,,,
7/22/1992 12:00:00 AM,00Pre,B:FABCO1D10:2,ABCO,,2,6,L,,2,,,1,,,,,,
7/28/1992 12:00:00 AM,00Pre,B:FABCO1D10:3,,0.005,,,,,,,,,,,,,True,
7/28/1992 12:00:00 AM,00Pre,B:FABCO1D10:3,ABCO,,3,1,L,,15,,,1,,,,,,
7/28/1992 12:00:00 AM,00Pre,B:FABCO1D10:3,ABCO,,2,4,L,,1,,,1,,,,,,
7/28/1992 12:00:00 AM,00Pre,B:FABCO1D10:3,ABCO,,1,1,L,,4,,,1,,,,,,
7/29/1992 12:00:00 AM,00Pre,B:FABCO1D10:4,,0.005,,,,,,,,,,,,,True,
7/29/1992 12:00:00 AM,00Pre,B:FABCO1D10:4,ABCO,,2,1,L,,80,,,1,,,,,,
7/29/1992 12:00:00 AM,00Pre,B:FABCO1D10:4,ABCO,,3,3,L,,1,,,1,,,,,,
7/29/1992 12:00:00 AM,00Pre,B:FABCO1D10:4,ABCO,,1,2,L,,1,,,1,,,,,,
8/5/1992 12:00:00 AM,00Pre,B:FABCO1D10:5,,0.005,,,,,,,,,,,,,True,
8/5/1992 12:00:00 AM,00Pre,B:FABCO1D10:5,PIJE,,1,1,L,,1,,,1,,,,,,
8/5/1992 12:00:00 AM,00Pre,B:FABCO1D10:5,ABCO,,2,1,L,,46,,,1,,,,,,
8/11/1992 12:00:00 AM,00Pre,B:FABCO1D10:6,,0.005,,,,,,,,,,,,,True,
8/11/1992 12:00:00 AM,00Pre,B:FABCO1D10:6,ABCO,,1,1,L,,13,,,1,,,,,,
8/11/1992 12:00:00 AM,00Pre,B:FABCO1D10:6,ABCO,,2,1,L,,40,,,1,,,,,,
8/13/1992 12:00:00 AM,00Pre,B:FABCO1D10:7,,0.005,,,,,,,,,,,,,True,
8/13/1992 12:00:00 AM,00Pre,B:FABCO1D10:7,ABCO,,1,1,L,,32,,,1,,,,,,
8/18/1992 12:00:00 AM,00Pre,B:FABCO1D10:8,,0.005,,,,,,,,,,,,,True,
8/18/1992 12:00:00 AM,00Pre,B:FABCO1D10:8,ABCO,,2,1,L,,20,,,1,,,,,,
8/18/1992 12:00:00 AM,00Pre,B:FABCO1D10:8,ABCO,,1,1,L,,2,,,1,,,,,,
8/20/1992 12:00:00 AM,00Pre,B:FABCO1D10:9,,0.005,,,,,,,,,,,,,True,
8/20/1992 12:00:00 AM,00Pre,B:FABCO1D10:9,CADE27,,3,1,L,,2,,,1,,,,,,
8/20/1992 12:00:00 AM,00Pre,B:FABCO1D10:9,CADE27,,2,5,L,,1,,,1,,,,,,
8/20/1992 12:00:00 AM,00Pre,B:FABCO1D10:9,CADE27,,1,2,L,,1,,,1,,,,,,
8/20/1992 12:00:00 AM,00Pre,B:FABCO1D10:9,ABCO,,4,5,L,,1,,,1,,,,,,
8/25/1992 12:00:00 AM,00Pre,C:FABCO1D10:10,,0.005,,,,,,,,,,,,,True,
8/25/1992 12:00:00 AM,00Pre,C:FABCO1D10:10,ABCO,,3,1,L,,36,,,1,,,,,,
8/25/1992 12:00:00 AM,00Pre,C:FABCO1D10:10,ABCO,,1,2,L,,1,,,1,,,,,,
8/25/1992 12:00:00 AM,00Pre,C:FABCO1D10:10,ABCO,,2,3,L,,1,,,1,,,,,,
8/27/1992 1:25:10 PM,00Pre,B:FABCO1D10:11,,0.005,,,,,,,,,,,,,True,
8/27/1992 1:25:10 PM,00Pre,B:FABCO1D10:11,CADE27,,-2147483647,1,L,,3,,,1,,,,,,
8/27/1992 1:25:10 PM,00Pre,B:FABCO1D10:11,ABCO,,-2147483648,3,L,,1,,,1,,,,,,
8/27/1992 1:25:10 PM,00Pre,B:FABCO1D10:11,ABCO,,-2147483646,1,L,,3,,,1,,,,,,
8/27/1992 1:25:10 PM,00Pre,B:FABCO1D10:11,ABCO,,-2147483645,6,L,,2,,,1,,,,,,
8/27/1992 1:25:10 PM,00Pre,B:FABCO1D10:11,ABCO,,-2147483644,4,L,,2,,,1,,,,,,
9/16/1992 12:00:00 AM,00Pre,C:FABCO1D10:12,,0.005,,,,,,,,,,,,,True,
9/16/1992 12:00:00 AM,00Pre,C:FABCO1D10:12,ABCO,,1,1,L,,13,,,1,,,,,,
9/28/1992 12:00:00 AM,00Pre,B:FABCO1D10:13,,0.005,,,,,,,,,,,,,True,
9/28/1992 12:00:00 AM,00Pre,B:FABCO1D10:13,ABCO,,1,1,L,,2,,,1,,,,,,
9/29/1992 12:00:00 AM,00Pre,B:FABCO1D10:14,,0.005,,,,,,,,,,,,,True,
9/29/1992 12:00:00 AM,00Pre,B:FABCO1D10:14,ABCO,,1,1,L,,1,,,1,,,,,,
9/30/1992 12:00:00 AM,00Pre,B:FABCO1D10:15,,0.005,,,,,,,,,,,,,True,
9/30/1992 12:00:00 AM,00Pre,B:FABCO1D10:15,ABCO,,1,1,L,,30,,,1,,,,,,
10/1/1992 12:00:00 AM,00Pre,B:FABCO1D10:16,,0.005,,,,,,,,,,,,,True,
10/1/1992 12:00:00 AM,00Pre,B:FABCO1D10:16,ABCO,,1,1,L,,12,,,1,,,,,,
10/5/1992 12:00:00 AM,00Pre,B:FABCO1D10:18,,0.005,,,,,,,,,,,,,True,
10/5/1992 12:00:00 AM,00Pre,B:FABCO1D10:18,NA,,-2147483648,0,,,0,,,1,,,,,,
10/5/1992 12:00:00 AM,00Pre,C:FPIJE1D05:4,,0.005,,,,,,,,,,,,,True,
10/5/1992 12:00:00 AM,00Pre,C:FPIJE1D05:4,NA,,-2147483648,0,,,0,,,1,,,,,,
5/28/1993 12:00:00 AM,01Post,B:FABCO1D10:16,,0.005,,,,,,,,,,,,,True,
5/28/1993 12:00:00 AM,01Post,B:FABCO1D10:16,ABCO,,1,1,L,,12,,,1,,,,,,
6/3/1993 12:00:00 AM,00Pre,C:FABCO1D10:31,,0.005,,,,,,,,,,,,,True,
6/3/1993 12:00:00 AM,00Pre,C:FABCO1D10:31,CADE27,,-2147483645,3,L,,1,,,1,,,,,,
6/3/1993 12:00:00 AM,00Pre,C:FABCO1D10:31,ABCO,,-2147483648,1,L,,2,,,1,,,,,,
6/3/1993 12:00:00 AM,00Pre,C:FABCO1D10:31,ABCO,,-2147483647,2,L,,3,,,1,,,,,,
6/3/1993 12:00:00 AM,00Pre,C:FABCO1D10:31,ABCO,,-2147483646,3,L,,1,,,1,,,,,,
6/8/1993 12:00:00 AM,00Pre,C:FABCO1D10:32,,0.005,,,,,,,,,,,,,True,
6/8/1993 12:00:00 AM,00Pre,C:FABCO1D10:32,ABCO,,1,6,D,,1,,,1,,,,,,
6/14/1993 12:00:00 AM,00Pre,C:FABCO1D10:19,,0.005,,,,,,,,,,,,,True,
6/14/1993 12:00:00 AM,00Pre,C:FABCO1D10:19,CADE27,,1,1,L,,3,,,1,,,,,,
6/14/1993 12:00:00 AM,00Pre,C:FABCO1D10:19,ABCO,,2,1,L,,6,,,1,,,,,,
6/21/1993 12:00:00 AM,00Pre,C:FABCO1D10:33,,0.005,,,,,,,,,,,,,True,
6/21/1993 12:00:00 AM,00Pre,C:FABCO1D10:33,PIJE,,3,1,L,,7,,,1,,,,,,
6/21/1993 12:00:00 AM,00Pre,C:FABCO1D10:33,ABCO,,1,1,L,,10,,,1,,,,,,
6/22/1993 12:00:00 AM,00Pre,C:FABCO1D10:20,,0.005,,,,,,,,,,,,,True,
6/22/1993 12:00:00 AM,00Pre,C:FABCO1D10:20,PIJE,,1,1,L,,1,,,1,,,,,,
6/22/1993 12:00:00 AM,00Pre,C:FABCO1D10:20,ABCO,,2,1,L,,20,,,1,,,,,,
6/24/1993 12:00:00 AM,00Pre,C:FABCO1D10:21,,0.005,,,,,,,,,,,,,True,
6/24/1993 12:00:00 AM,00Pre,C:FABCO1D10:21,CADE27,,4,1,D,,1,,,1,,,,,,
6/24/1993 12:00:00 AM,00Pre,C:FABCO1D10:21,CADE27,,3,1,L,,59,,,1,,,,,,
6/24/1993 12:00:00 AM,00Pre,C:FABCO1D10:21,ABCO,,2,1,D,,1,,,1,,,,,,
6/24/1993 12:00:00 AM,00Pre,C:FABCO1D10:21,ABCO,,1,1,L,,7,,,1,,,,,,
6/30/1993 1:29:17 PM,00Pre,C:FABCO1D10:22,,0.005,,,,,,,,,,,,,True,
6/30/1993 1:29:17 PM,00Pre,C:FABCO1D10:22,ABCO,,-2147483648,1,L,,27,,,1,,,,,,
6/30/1993 1:29:17 PM,00Pre,C:FABCO1D10:22,ABCO,,-2147483647,3,L,,2,,,1,,,,,,
7/7/1993 12:00:00 AM,00Pre,C:FABCO1D10:23,,0.005,,,,,,,,,,,,,True,
7/7/1993 12:00:00 AM,00Pre,C:FABCO1D10:23,ABCO,,1,1,L,,16,,,1,,,,,,
7/8/1993 12:00:00 AM,00Pre,B:FABCO1D10:24,,0.005,,,,,,,,,,,,,True,
7/8/1993 12:00:00 AM,00Pre,B:FABCO1D10:24,CADE27,,1,1,L,,3,,,1,,,,,,
7/8/1993 12:00:00 AM,00Pre,B:FABCO1D10:24,ABCO,,2,1,L,,38,,,1,,,,,,
7/13/1993 12:00:00 AM,00Pre,B:FABCO1D10:25,,0.005,,,,,,,,,,,,,True,
7/13/1993 12:00:00 AM,00Pre,B:FABCO1D10:25,ABCO,,1,1,L,,2,,,1,,,,,,
7/21/1993 12:00:00 AM,00Pre,B:FABCO1D10:26,,0.005,,,,,,,,,,,,,True,
7/21/1993 12:00:00 AM,00Pre,B:FABCO1D10:26,ABCO,,2,2,L,,1,,,1,,,,,,
7/21/1993 12:00:00 AM,00Pre,B:FABCO1D10:26,ABCO,,3,9,L,,1,,,1,,,,,,
7/21/1993 12:00:00 AM,00Pre,B:FABCO1D10:26,ABCO,,1,1,L,,2,,,1,,,,,,
7/21/1993 12:00:00 AM,00Pre,B:FABCO1D10:26,ABCO,,4,10,L,,1,,,1,,,,,,
7/27/1993 12:00:00 AM,00Pre,B:FABCO1D10:28,,0.005,,,,,,,,,,,,,True,
7/27/1993 12:00:00 AM,00Pre,B:FABCO1D10:28,NA,,-2147483648,0,,,0,,,1,,,,,,
8/7/1993 12:00:00 AM,00Pre,B:FPIJE1D09:2,,0.005,,,,,,,,,,,,,True,
8/7/1993 12:00:00 AM,00Pre,B:FPIJE1D09:2,CADE27,,3,1,L,,2,,,1,,,,,,
8/7/1993 12:00:00 AM,00Pre,B:FPIJE1D09:2,ABCO,,1,1,L,,3,,,1,,,,,,
8/7/1993 12:00:00 AM,00Pre,B:FPIJE1D09:2,ABCO,,2,4,L,,1,,,1,,,,,,
8/7/1993 12:00:00 AM,00Pre,B:FPIJE1D09:2,ABCO,,4,5,D,,1,,,1,,,,,,
9/7/1993 12:00:00 AM,00Pre,B:FPIJE1D09:1,,0.005,,,,,,,,,,,,,True,
9/7/1993 12:00:00 AM,00Pre,B:FPIJE1D09:1,PIJE,,2,1,L,,1,,,1,,,,,,
9/7/1993 12:00:00 AM,00Pre,B:FPIJE1D09:1,ABCO,,3,1,L,,8,,,1,,,,,,
9/7/1993 12:00:00 AM,00Pre,B:FPIJE1D09:1,ABCO,,1,2,L,,1,,,1,,,,,,
7/8/1994 12:00:00 AM,01yr02,B:FABCO1D10:16,,0.005,,,,,,,,,,,,,True,
7/8/1994 12:00:00 AM,01yr02,B:FABCO1D10:16,NA,,-2147483648,0,,,0,,,1,,,,,,
7/19/1994 12:00:00 AM,01yr02,B:FABCO1D10:14,,0.005,,,,,,,,,,,,,True,
7/19/1994 12:00:00 AM,01yr02,B:FABCO1D10:14,NA,,-2147483648,0,,,0,,,1,,,,,,
7/29/1994 2:28:40 PM,01yr02,B:FABCO1D10:11,,0.005,,,,,,,,,,,,,True,
7/29/1994 2:28:40 PM,01yr02,B:FABCO1D10:11,CADE27,,-2147483646,5,L,,1,,,1,,,,,,
7/29/1994 2:28:40 PM,01yr02,B:FABCO1D10:11,ABCO,,-2147483648,4,L,,3,,,1,,,,,,
7/29/1994 2:28:40 PM,01yr02,B:FABCO1D10:11,ABCO,,-2147483647,3,L,,1,,,1,,,,,,
8/9/1994 12:00:00 AM,01yr02,C:FABCO1D10:1,,0.005,,,,,,,,,,,,,True,
8/9/1994 12:00:00 AM,01yr02,C:FABCO1D10:1,ABCO,,1,1,L,,1,,,1,,,,,,
8/15/1994 12:00:00 AM,01yr01,B:FPIJE1D09:1,,0.005,,,,,,,,,,,,,True,
8/15/1994 12:00:00 AM,01yr01,B:FPIJE1D09:1,ABCO,,-2147483648,1,L,,1,,,1,,,,,,
8/22/1994 12:00:00 AM,01yr01,B:FABCO1D10:28,,0.005,,,,,,,,,,,,,True,
8/22/1994 12:00:00 AM,01yr01,B:FABCO1D10:28,NA,,-2147483648,0,,,0,,,1,,,,,,
8/22/1994 12:00:00 AM,01yr01,B:FPIJE1D09:2,,0.005,,,,,,,,,,,,,True,
8/22/1994 12:00:00 AM,01yr01,B:FPIJE1D09:2,ABCO,,2,4,D,,1,,,1,,,,,,
8/22/1994 12:00:00 AM,01yr01,B:FPIJE1D09:2,ABCO,,1,4,L,,1,,,1,,,,,,
8/25/1994 12:00:00 AM,00Pre,B:FPIJE1D05:5,,0.005,,,,,,,,,,,,,True,
8/25/1994 12:00:00 AM,00Pre,B:FPIJE1D05:5,PILA,,2,2,L,,4,,,1,,,,,,
8/25/1994 12:00:00 AM,00Pre,B:FPIJE1D05:5,ABCO,,3,1,L,,2,,,1,,,,,,
8/25/1994 12:00:00 AM,00Pre,B:FPIJE1D05:5,ABCO,,1,1,L,,3,,,1,,,,,,
8/25/1994 12:00:00 AM,00Pre,B:FPIJE1D05:5,ABCO,,4,3,L,,1,,,1,,,,,,
9/16/1994 12:00:00 AM,01yr02,C:FABCO1D10:12,,0.005,,,,,,,,,,,,,True,
9/16/1994 12:00:00 AM,01yr02,C:FABCO1D10:12,ABCO,,1,6,L,,1,,,1,,,,,,
7/10/1995 12:00:00 AM,00Pre,B:FPIJE1D05:1,,0.005,,,,,,,,,,,,,True,
7/10/1995 12:00:00 AM,00Pre,B:FPIJE1D05:1,ABCO,,1,1,L,,60,,,1,,,,,,
7/17/1995 12:00:00 AM,01yr01,B:FPILA1D09:1,,0.005,,,,,,,,,,,,,True,
7/17/1995 12:00:00 AM,01yr01,B:FPILA1D09:1,CADE27,,1,1,L,,1,,,1,,,,,,
7/18/1995 12:00:00 AM,01yr01,B:FABCO1D10:13,,0.005,,,,,,,,,,,,,True,
7/18/1995 12:00:00 AM,01yr01,B:FABCO1D10:13,PIJE,,2,1,L,,1,,,1,,,,,,
7/18/1995 12:00:00 AM,01yr01,B:FABCO1D10:13,ABCO,,1,1,L,,66,,,1,,,,,,
7/19/1995 12:00:00 AM,01yr02,B:FABCO1D10:28,,0.005,,,,,,,,,,,,,True,
7/19/1995 12:00:00 AM,01yr02,B:FABCO1D10:28,PIJE,,1,1,L,,7,,,1,,,,,,
7/19/1995 12:00:00 AM,01yr02,B:FABCO1D10:28,ABCO,,2,1,L,,41,,,1,,,,,,
7/25/1995 12:00:00 AM,00Pre,C:FPIJE1D05:2,,0.005,,,,,,,,,,,,,True,
7/25/1995 12:00:00 AM,00Pre,C:FPIJE1D05:2,NA,,-2147483648,0,,,0,,,1,,,,,,
8/1/1995 12:00:00 AM,01yr02,B:FPIJE1D09:1,,0.005,,,,,,,,,,,,,True,
8/1/1995 12:00:00 AM,01yr02,B:FPIJE1D09:1,ABCO,,1,1,L,,10,,,1,,,,,,
8/2/1995 12:00:00 AM,01yr02,B:FPIJE1D09:2,,0.005,,,,,,,,,,,,,True,
8/2/1995 12:00:00 AM,01yr02,B:FPIJE1D09:2,ABCO,,1,1,D,,1,,,1,,,,,,
8/2/1995 12:00:00 AM,01yr02,B:FPIJE1D09:2,ABCO,,2,1,L,,22,,,1,,,,,,
8/9/1995 12:00:00 AM,00Pre,C:FPIJE1D05:3,,0.005,,,,,,,,,,,,,True,
8/9/1995 12:00:00 AM,00Pre,C:FPIJE1D05:3,ABCO,,1,13,L,,1,,,1,,,,,,
11/28/1995 12:00:00 AM,01Post,B:FABCO1D10:2,,0.005,,,,,,,,,,,,,True,
11/28/1995 12:00:00 AM,01Post,B:FABCO1D10:2,ABCO,,1,6,L,,2,,,1,,,,,,
11/28/1995 12:00:00 AM,01Post,B:FABCO1D10:2,ABCO,,2,1,L,,5,,,1,,,,,,
11/28/1995 12:00:00 AM,01Post,B:FABCO1D10:3,,0.005,,,,,,,,,,,,,True,
11/28/1995 12:00:00 AM,01Post,B:FABCO1D10:3,ABCO,,3,4,L,,1,,,1,,,,,,
11/28/1995 12:00:00 AM,01Post,B:FABCO1D10:3,ABCO,,2,1,L,,4,,,1,,,,,,
11/28/1995 12:00:00 AM,01Post,B:FABCO1D10:3,ABCO,,1,1,L,,15,,,1,,,,,,
6/10/1996 12:00:00 AM,00Pre,B:FABCO1D10:40,,0.005,,,,,,,,,,,,,True,
6/10/1996 12:00:00 AM,00Pre,B:FABCO1D10:40,ABCO,,1,1,L,,15,,,1,,,,,,
6/11/1996 12:00:00 AM,01yr01,B:FABCO1D10:18,,0.005,,,,,,,,,,,,,True,
6/11/1996 12:00:00 AM,01yr01,B:FABCO1D10:18,NA,,-2147483648,0,,,0,,,1,,,,,,
6/13/1996 12:00:00 AM,01yr01,B:FABCO1D10:8,,0.005,,,,,,,,,,,,,True,
6/13/1996 12:00:00 AM,01yr01,B:FABCO1D10:8,ABCO,,1,1,L,,1,,,1,,,,,,
6/14/1996 12:00:00 AM,01yr01,B:FABCO1D10:7,,0.005,,,,,,,,,,,,,True,
6/14/1996 12:00:00 AM,01yr01,B:FABCO1D10:7,NA,,-2147483648,0,,,0,,,1,,,,,,
6/14/1996 12:00:00 AM,01yr03,C:FABCO1D10:10,,0.005,,,,,,,,,,,,,True,
6/14/1996 12:00:00 AM,01yr03,C:FABCO1D10:10,ABCO,,2,1,L,,46,,,1,,,,,,
6/14/1996 12:00:00 AM,01yr03,C:FABCO1D10:10,ABCO,,1,4,L,,5,,,1,,,,,,
6/18/1996 12:00:00 AM,01yr01,B:FABCO1D10:2,,0.005,,,,,,,,,,,,,True,
6/18/1996 12:00:00 AM,01yr01,B:FABCO1D10:2,ABCO,,1,1,L,,1,,,1,,,,,,
6/19/1996 12:00:00 AM,01yr01,B:FABCO1D10:3,,0.005,,,,,,,,,,,,,True,
6/19/1996 12:00:00 AM,01yr01,B:FABCO1D10:3,NA,,-2147483648,0,,,0,,,1,,,,,,
6/20/1996 12:00:00 AM,01yr01,B:FABCO1D10:4,,0.005,,,,,,,,,,,,,True,
6/20/1996 12:00:00 AM,01yr01,B:FABCO1D10:4,PIJE,,3,1,L,,2,,,1,,,,,,
6/20/1996 12:00:00 AM,01yr01,B:FABCO1D10:4,PILA,,4,1,L,,1,,,1,,,,,,
6/20/1996 12:00:00 AM,01yr01,B:FABCO1D10:4,ABCO,,1,5,L,,2,,,1,,,,,,
6/20/1996 12:00:00 AM,01yr01,B:FABCO1D10:4,ABCO,,6,2,L,,2,,,1,,,,,,
6/20/1996 12:00:00 AM,01yr01,B:FABCO1D10:4,ABCO,,2,4,L,,2,,,1,,,,,,
6/20/1996 12:00:00 AM,01yr01,B:FABCO1D10:4,ABCO,,5,1,L,,15,,,1,,,,,,
6/27/1996 12:00:00 AM,00Pre,B:FPIJE1D09:3,,0.005,,,,,,,,,,,,,True,
6/27/1996 12:00:00 AM,00Pre,B:FPIJE1D09:3,ABCO,,2,3,L,,1,,,1,,,,,,
6/27/1996 12:00:00 AM,00Pre,B:FPIJE1D09:3,ABCO,,1,1,L,,9,,,1,,,,,,
6/27/1996 12:00:00 AM,00Pre,B:FPIJE1D09:3,ABCO,,3,5,L,,1,,,1,,,,,,
6/28/1996 12:00:00 AM,00Pre,B:FABMA1D10:1,,0.005,,,,,,,,,,,,,True,
6/28/1996 12:00:00 AM,00Pre,B:FABMA1D10:1,PIJE,,2,1,L,,1,,,1,,,,,,
6/28/1996 12:00:00 AM,00Pre,B:FABMA1D10:1,ABMA,,1,1,L,,4,,,1,,,,,,
7/18/1996 12:00:00 AM,01yr01,B:FABCO1D10:24,,0.005,,,,,,,,,,,,,True,
7/18/1996 12:00:00 AM,01yr01,B:FABCO1D10:24,ABCO,,1,1,L,,59,,,1,,,,,,
7/18/1996 12:00:00 AM,01yr01,B:FABCO1D10:26,,0.005,,,,,,,,,,,,,True,
7/18/1996 12:00:00 AM,01yr01,B:FABCO1D10:26,PIJE,,1,1,L,,1,,,1,,,,,,
7/18/1996 12:00:00 AM,01yr01,B:FABCO1D10:26,ABCO,,2,1,L,,15,,,1,,,,,,
7/22/1996 12:00:00 AM,01yr01,B:FABCO1D10:25,,0.005,,,,,,,,,,,,,True,
7/22/1996 12:00:00 AM,01yr01,B:FABCO1D10:25,ABCO,,1,1,L,,11,,,1,,,,,,
7/29/1996 12:00:00 AM,01yr02,B:FPILA1D09:1,,0.005,,,,,,,,,,,,,True,
7/29/1996 12:00:00 AM,01yr02,B:FPILA1D09:1,ABCO,,1,1,L,,6,,,1,,,,,,
7/30/1996 12:00:00 AM,01yr02,B:FABCO1D10:13,,0.005,,,,,,,,,,,,,True,
7/30/1996 12:00:00 AM,01yr02,B:FABCO1D10:13,ABCO,,1,1,L,,10,,,1,,,,,,
7/31/1996 12:00:00 AM,01yr03,C:FABCO1D10:22,,0.005,,,,,,,,,,,,,True,
7/31/1996 12:00:00 AM,01yr03,C:FABCO1D10:22,ABCO,,1,5,L,,1,,,1,,,,,,
7/31/1996 12:00:00 AM,01yr03,C:FABCO1D10:22,ABCO,,3,1,L,,11,,,1,,,,,,
7/31/1996 12:00:00 AM,01yr03,C:FABCO1D10:22,ABCO,,2,3,L,,1,,,1,,,,,,
8/12/1996 12:00:00 AM,00Pre,C:FABCO1D10:41,,0.005,,,,,,,,,,,,,True,
8/12/1996 12:00:00 AM,00Pre,C:FABCO1D10:41,ABCO,,2,1,L,,40,,,1,,,,,,
8/12/1996 12:00:00 AM,00Pre,C:FABCO1D10:41,ABCO,,1,1,D,,11,,,1,,,,,,
6/9/1997 12:00:00 AM,01yr01,B:FABCO1D10:30,,0.005,,,,,,,,,,,,,True,
6/9/1997 12:00:00 AM,01yr01,B:FABCO1D10:30,ABCO,,1,1,L,,3,,,1,,,,,,
6/10/1997 12:00:00 AM,01yr03,B:FABCO1D10:13,,0.005,,,,,,,,,,,,,True,
6/10/1997 12:00:00 AM,01yr03,B:FABCO1D10:13,ABCO,,1,1,L,,7,,,1,,,,,,
6/11/1997 12:00:00 AM,01yr05,C:FABCO1D10:12,,0.005,,,,,,,,,,,,,True,
6/11/1997 12:00:00 AM,01yr05,C:FABCO1D10:12,CADE27,,2,1,L,,1,,,1,,,,,,
6/11/1997 12:00:00 AM,01yr05,C:FABCO1D10:12,ABCO,,1,1,L,,2,,,1,,,,,,
6/12/1997 12:00:00 AM,01yr05,C:FABCO1D10:1,,0.005,,,,,,,,,,,,,True,
6/12/1997 12:00:00 AM,01yr05,C:FABCO1D10:1,CADE27,,4,1,L,,4,,,1,,,,,,
6/12/1997 12:00:00 AM,01yr05,C:FABCO1D10:1,ABCO,,1,3,L,,1,,,1,,,,,,
6/12/1997 12:00:00 AM,01yr05,C:FABCO1D10:1,ABCO,,5,2,L,,1,,,1,,,,,,
6/12/1997 12:00:00 AM,01yr05,C:FABCO1D10:1,ABCO,,3,5,L,,4,,,1,,,,,,
6/12/1997 12:00:00 AM,01yr05,C:FABCO1D10:1,ABCO,,2,1,L,,14,,,1,,,,,,
6/16/1997 12:00:00 AM,01yr05,B:FABCO1D10:16,,0.005,,,,,,,,,,,,,True,
6/16/1997 12:00:00 AM,01yr05,B:FABCO1D10:16,ABCO,,1,1,L,,2,,,1,,,,,,
6/18/1997 12:00:00 AM,01yr05,B:FABCO1D10:14,,0.005,,,,,,,,,,,,,True,
6/18/1997 12:00:00 AM,01yr05,B:FABCO1D10:14,ABCO,,1,1,L,,11,,,1,,,,,,
6/19/1997 12:00:00 AM,01yr03,B:FPILA1D09:1,,0.005,,,,,,,,,,,,,True,
6/19/1997 12:00:00 AM,01yr03,B:FPILA1D09:1,NA,,-2147483648,0,,,0,,,1,,,,,,
6/20/1997 12:00:00 AM,01yr03,B:FPIJE1D05:5,,0.005,,,,,,,,,,,,,True,
6/20/1997 12:00:00 AM,01yr03,B:FPIJE1D05:5,CADE27,,1,1,L,,1,,,1,,,,,,
6/27/1997 12:00:00 AM,01yr02,B:FABCO1D10:2,,0.005,,,,,,,,,,,,,True,
6/27/1997 12:00:00 AM,01yr02,B:FABCO1D10:2,CADE27,,2,1,L,,2,,,1,,,,,,
6/27/1997 12:00:00 AM,01yr02,B:FABCO1D10:2,ABCO,,1,1,L,,1,,,1,,,,,,
6/30/1997 12:00:00 AM,01yr02,B:FABCO1D10:3,,0.005,,,,,,,,,,,,,True,
6/30/1997 12:00:00 AM,01yr02,B:FABCO1D10:3,PIJE,,1,1,L,,1,,,1,,,,,,
6/30/1997 12:00:00 AM,01yr02,B:FABCO1D10:3,ABCO,,2,1,L,,1,,,1,,,,,,
7/1/1997 12:00:00 AM,01yr02,B:FABCO1D10:4,,0.005,,,,,,,,,,,,,True,
7/1/1997 12:00:00 AM,01yr02,B:FABCO1D10:4,ABCO,,1,3,L,,2,,,1,,,,,,
7/1/1997 12:00:00 AM,01yr02,B:FABCO1D10:4,ABCO,,2,2,L,,6,,,1,,,,,,
7/1/1997 12:00:00 AM,01yr02,B:FABCO1D10:4,ABCO,,3,1,L,,4,,,1,,,,,,
7/2/1997 12:00:00 AM,01yr02,B:FABCO1D10:6,,0.005,,,,,,,,,,,,,True,
7/2/1997 12:00:00 AM,01yr02,B:FABCO1D10:6,ABCO,,1,5,D,,1,,,1,,,,,,
7/7/1997 12:00:00 AM,01yr02,B:FABCO1D10:7,,0.005,,,,,,,,,,,,,True,
7/7/1997 12:00:00 AM,01yr02,B:FABCO1D10:7,PIJE,,1,1,L,,18,,,1,,,,,,
7/7/1997 12:00:00 AM,01yr02,B:FABCO1D10:7,PICO,,3,1,L,,6,,,1,,,,,,
7/7/1997 12:00:00 AM,01yr02,B:FABCO1D10:7,ABCO,,2,1,L,,9,,,1,,,,,,
7/7/1997 12:00:00 AM,01yr02,B:FABCO1D10:8,,0.005,,,,,,,,,,,,,True,
7/7/1997 12:00:00 AM,01yr02,B:FABCO1D10:8,PICO,,1,1,L,,3,,,1,,,,,,
7/11/1997 12:00:00 AM,01yr02,B:FABCO1D10:18,,0.005,,,,,,,,,,,,,True,
7/11/1997 12:00:00 AM,01yr02,B:FABCO1D10:18,NA,,-2147483648,0,,,0,,,1,,,,,,
7/31/1997 12:00:00 AM,01yr05,B:FABCO1D10:11,,0.005,,,,,,,,,,,,,True,
7/31/1997 12:00:00 AM,01yr05,B:FABCO1D10:11,CADE27,,4,1,L,,4,,,1,,,,,,
7/31/1997 12:00:00 AM,01yr05,B:FABCO1D10:11,CADE27,,1,5,L,,1,,,1,,,,,,
7/31/1997 12:00:00 AM,01yr05,B:FABCO1D10:11,ABCO,,3,6,L,,2,,,1,,,,,,
7/31/1997 12:00:00 AM,01yr05,B:FABCO1D10:11,ABCO,,2,1,L,,1,,,1,,,,,,
8/4/1997 12:00:00 AM,01yr02,B:FABCO1D10:25,,0.005,,,,,,,,,,,,,True,
8/4/1997 12:00:00 AM,01yr02,B:FABCO1D10:25,CADE27,,1,1,L,,6,,,1,,,,,,
8/5/1997 12:00:00 AM,01yr05,B:FABCO1D10:9,,0.005,,,,,,,,,,,,,True,
8/5/1997 12:00:00 AM,01yr05,B:FABCO1D10:9,CADE27,,1,5,D,,1,,,1,,,,,,
8/5/1997 12:00:00 AM,01yr05,B:FABCO1D10:9,CADE27,,6,1,L,,7,,,1,,,,,,
8/5/1997 12:00:00 AM,01yr05,B:FABCO1D10:9,CADE27,,3,3,L,,2,,,1,,,,,,
8/5/1997 12:00:00 AM,01yr05,B:FABCO1D10:9,CADE27,,2,5,L,,1,,,1,,,,,,
8/5/1997 12:00:00 AM,01yr05,B:FABCO1D10:9,ABCO,,4,5,L,,2,,,1,,,,,,
8/5/1997 12:00:00 AM,01yr05,B:FABCO1D10:9,ABCO,,5,6,L,,1,,,1,,,,,,
8/7/1997 12:00:00 AM,01yr02,B:FABCO1D10:26,,0.005,,,,,,,,,,,,,True,
8/7/1997 12:00:00 AM,01yr02,B:FABCO1D10:26,CADE27,,1,1,L,,1,,,1,,,,,,
8/11/1997 12:00:00 AM,01yr02,B:FABCO1D10:24,,0.005,,,,,,,,,,,,,True,
8/11/1997 12:00:00 AM,01yr02,B:FABCO1D10:24,CADE27,,2,1,L,,51,,,1,,,,,,
8/11/1997 12:00:00 AM,01yr02,B:FABCO1D10:24,ABCO,,1,1,L,,1,,,1,,,,,,
8/14/1997 12:00:00 AM,01yr05,C:FABCO1D10:10,,0.005,,,,,,,,,,,,,True,
8/14/1997 12:00:00 AM,01yr05,C:FABCO1D10:10,ABCO,,6,2,L,,1,,,1,,,,,,
8/14/1997 12:00:00 AM,01yr05,C:FABCO1D10:10,ABCO,,2,5,L,,2,,,1,,,,,,
8/14/1997 12:00:00 AM,01yr05,C:FABCO1D10:10,ABCO,,3,5,D,,1,,,1,,,,,,
8/14/1997 12:00:00 AM,01yr05,C:FABCO1D10:10,ABCO,,5,4,L,,1,,,1,,,,,,
8/14/1997 12:00:00 AM,01yr05,C:FABCO1D10:10,ABCO,,7,1,L,,13,,,1,,,,,,
8/14/1997 12:00:00 AM,01yr05,C:FABCO1D10:10,ABCO,,1,6,L,,2,,,1,,,,,,
8/14/1997 12:00:00 AM,01yr05,C:FABCO1D10:10,ABCO,,4,3,L,,1,,,1,,,,,,
8/20/1997 12:00:00 AM,01yr01,B:FABCO1D10:40,,0.005,,,,,,,,,,,,,True,
8/20/1997 12:00:00 AM,01yr01,B:FABCO1D10:40,NA,,-2147483648,0,,,0,,,1,,,,,,
9/17/1997 12:00:00 AM,01yr01,B:FPIJE1D09:3,,0.005,,,,,,,,,,,,,True,
9/17/1997 12:00:00 AM,01yr01,B:FPIJE1D09:3,ABCO,,2,3,D,,1,,,1,,,,,,
9/17/1997 12:00:00 AM,01yr01,B:FPIJE1D09:3,ABCO,,1,1,L,,1,,,1,,,,,,
9/17/1997 12:00:00 AM,01yr01,B:FPIJE1D09:3,ABCO,,3,5,D,,2,,,1,,,,,,
9/26/1997 12:00:00 AM,01yr01,B:FABMA1D10:1,,0.005,,,,,,,,,,,,,True,
9/26/1997 12:00:00 AM,01yr01,B:FABMA1D10:1,NA,,-2147483648,0,,,0,,,1,,,,,,
9/29/1997 12:00:00 AM,01yr01,B:FPIJE1D05:1,,0.005,,,,,,,,,,,,,True,
9/29/1997 12:00:00 AM,01yr01,B:FPIJE1D05:1,NA,,-2147483648,0,,,0,,,1,,,,,,
10/16/1997 12:00:00 AM,01yr01,C:FABCO1D10:41,,0.005,,,,,,,,,,,,,True,
10/16/1997 12:00:00 AM,01yr01,C:FABCO1D10:41,ABMA,,1,1,L,,4,,,1,,,,,,
10/16/1997 12:00:00 AM,01yr01,C:FABCO1D10:41,ABCO,,2,1,L,,16,,,1,,,,,,
6/9/1998 12:00:00 AM,01yr05,B:FPIJE1D09:1,,0.005,,,,,,,,,,,,,True,
6/9/1998 12:00:00 AM,01yr05,B:FPIJE1D09:1,CADE27,,2,1,L,,1,,,1,,,,,,
6/9/1998 12:00:00 AM,01yr05,B:FPIJE1D09:1,ABCO,,1,1,L,,7,,,1,,,,,,
6/15/1998 12:00:00 AM,01yr05,B:FPIJE1D09:2,,0.005,,,,,,,,,,,,,True,
6/15/1998 12:00:00 AM,01yr05,B:FPIJE1D09:2,ABCO,,1,5,D,,1,,,1,,,,,,
6/15/1998 12:00:00 AM,01yr05,B:FPIJE1D09:2,ABCO,,2,1,L,,46,,,1,,,,,,
6/15/1998 12:00:00 AM,01yr05,B:FPIJE1D09:2,ABCO,,3,4,L,,1,,,1,,,,,,
6/16/1998 12:00:00 AM,01yr05,B:FABCO1D10:28,,0.005,,,,,,,,,,,,,True,
6/16/1998 12:00:00 AM,01yr05,B:FABCO1D10:28,PIJE,,2,1,L,,1,,,1,,,,,,
6/16/1998 12:00:00 AM,01yr05,B:FABCO1D10:28,ABCO,,1,1,L,,36,,,1,,,,,,
6/29/1998 9:07:44 AM,00Pre,C:FABCO1D10:42,,0.005,,,,,,,,,,,,,True,
6/29/1998 9:07:44 AM,00Pre,C:FABCO1D10:42,CADE27,,-2147483648,1,L,,143,,,1,,,,,,
6/29/1998 9:07:44 AM,00Pre,C:FABCO1D10:42,CADE27,,-2147483645,4,L,,1,,,1,,,,,,
6/29/1998 9:07:44 AM,00Pre,C:FABCO1D10:42,CADE27,,-2147483644,5,L,,1,,,1,,,,,,
6/29/1998 9:07:44 AM,00Pre,C:FABCO1D10:42,CADE27,,-2147483643,5,D,,1,,,1,,,,,,
6/29/1998 9:07:44 AM,00Pre,C:FABCO1D10:42,PILA,,-2147483646,1,L,,22,,,1,,,,,,
6/29/1998 9:07:44 AM,00Pre,C:FABCO1D10:42,ABMA,,-2147483641,5,L,,1,,,1,,,,,,
6/29/1998 9:07:44 AM,00Pre,C:FABCO1D10:42,ABCO,,-2147483647,1,L,,27,,,1,,,,,,
6/29/1998 9:07:44 AM,00Pre,C:FABCO1D10:42,ABCO,,-2147483642,5,L,,6,,,1,,,,,,
6/29/1998 9:07:44 AM,00Pre,C:FABCO1D10:42,ABCO,,-2147483640,4,L,,5,,,1,,,,,,
6/29/1998 9:07:44 AM,00Pre,C:FABCO1D10:42,ABCO,,-2147483639,6,L,,1,,,1,,,,,,
7/8/1998 12:00:00 AM,01yr03,B:FABCO1D10:2,,0.005,,,,,,,,,,,,,True,
7/8/1998 12:00:00 AM,01yr03,B:FABCO1D10:2,CADE27,,3,1,L,,2,,,1,,,,,,
7/8/1998 12:00:00 AM,01yr03,B:FABCO1D10:2,ABCO,,4,5,D,,3,,,1,,,,,,
7/8/1998 12:00:00 AM,01yr03,B:FABCO1D10:2,ABCO,,1,1,L,,141,,,1,,,,,,
7/8/1998 12:00:00 AM,01yr03,B:FABCO1D10:2,ABCO,,2,6,D,,1,,,1,,,,,,
7/9/1998 12:00:00 AM,01yr03,B:FABCO1D10:3,,0.005,,,,,,,,,,,,,True,
7/9/1998 12:00:00 AM,01yr03,B:FABCO1D10:3,PILA,,1,1,L,,1,,,1,,,,,,
7/9/1998 12:00:00 AM,01yr03,B:FABCO1D10:3,ABCO,,2,1,L,,7,,,1,,,,,,
7/10/1998 12:00:00 AM,01yr03,B:FABCO1D10:4,,0.005,,,,,,,,,,,,,True,
7/10/1998 12:00:00 AM,01yr03,B:FABCO1D10:4,ABCO,,4,5,L,,1,,,1,,,,,,
7/10/1998 12:00:00 AM,01yr03,B:FABCO1D10:4,ABCO,,3,1,L,,1,,,1,,,,,,
7/10/1998 12:00:00 AM,01yr03,B:FABCO1D10:4,ABCO,,1,4,L,,1,,,1,,,,,,
7/10/1998 12:00:00 AM,01yr03,B:FABCO1D10:4,ABCO,,2,3,L,,3,,,1,,,,,,
7/13/1998 12:00:00 AM,01yr03,B:FABCO1D10:6,,0.005,,,,,,,,,,,,,True,
7/13/1998 12:00:00 AM,01yr03,B:FABCO1D10:6,ABCO,,1,1,L,,123,,,1,,,,,,
7/17/1998 12:00:00 AM,01yr01,B:FABCO1D10:5,,0.005,,,,,,,,,,,,,True,
7/17/1998 12:00:00 AM,01yr01,B:FABCO1D10:5,ABMA,,1,2,L,,3,,,1,,,,,,
7/17/1998 12:00:00 AM,01yr01,B:FABCO1D10:5,ABCO,,2,2,L,,38,,,1,,,,,,
7/21/1998 12:00:00 AM,01yr02,B:FPIJE1D05:1,,0.005,,,,,,,,,,,,,True,
7/21/1998 12:00:00 AM,01yr02,B:FPIJE1D05:1,NA,,-2147483648,0,,,0,,,1,,,,,,
8/4/1998 12:00:00 AM,01yr03,B:FABCO1D10:8,,0.005,,,,,,,,,,,,,True,
8/4/1998 12:00:00 AM,01yr03,B:FABCO1D10:8,PICO,,3,1,L,,1,,,1,,,,,,
8/4/1998 12:00:00 AM,01yr03,B:FABCO1D10:8,PICO,,2,2,L,,3,,,1,,,,,,
8/4/1998 12:00:00 AM,01yr03,B:FABCO1D10:8,ABCO,,1,1,L,,56,,,1,,,,,,
8/5/1998 12:00:00 AM,01yr03,B:FABCO1D10:7,,0.005,,,,,,,,,,,,,True,
8/5/1998 12:00:00 AM,01yr03,B:FABCO1D10:7,PICO,,2,1,L,,1,,,1,,,,,,
8/5/1998 12:00:00 AM,01yr03,B:FABCO1D10:7,PICO,,3,2,L,,12,,,1,,,,,,
8/5/1998 12:00:00 AM,01yr03,B:FABCO1D10:7,ABCO,,1,2,L,,1,,,1,,,,,,
8/5/1998 12:00:00 AM,01yr03,B:FABCO1D10:7,ABCO,,4,1,L,,1,,,1,,,,,,
8/11/1998 12:00:00 AM,01yr02,B:FPIJE1D09:3,,0.005,,,,,,,,,,,,,True,
8/11/1998 12:00:00 AM,01yr02,B:FPIJE1D09:3,ABCO,,1,1,L,,114,,,1,,,,,,
8/13/1998 12:00:00 AM,01yr02,B:FABMA1D10:1,,0.005,,,,,,,,,,,,,True,
8/13/1998 12:00:00 AM,01yr02,B:FABMA1D10:1,ABMA,,1,1,L,,49,,,1,,,,,,
8/24/1998 12:00:00 AM,01yr03,B:FABCO1D10:24,,0.005,,,,,,,,,,,,,True,
8/24/1998 12:00:00 AM,01yr03,B:FABCO1D10:24,CADE27,,1,1,L,,32,,,1,,,,,,
8/24/1998 12:00:00 AM,01yr03,B:FABCO1D10:24,ABCO,,2,1,L,,246,,,1,,,,,,
8/25/1998 12:00:00 AM,01yr03,B:FABCO1D10:26,,0.005,,,,,,,,,,,,,True,
8/25/1998 12:00:00 AM,01yr03,B:FABCO1D10:26,CADE27,,1,1,D,,1,,,1,,,,,,
8/25/1998 12:00:00 AM,01yr03,B:FABCO1D10:26,ABCO,,2,1,D,,41,,,1,,,,,,
8/27/1998 12:00:00 AM,01yr03,B:FABCO1D10:25,,0.005,,,,,,,,,,,,,True,
8/27/1998 12:00:00 AM,01yr03,B:FABCO1D10:25,ABCO,,1,1,L,,1,,,1,,,,,,
9/4/1998 12:00:00 AM,01yr03,B:FABCO1D10:18,,0.005,,,,,,,,,,,,,True,
9/4/1998 12:00:00 AM,01yr03,B:FABCO1D10:18,ABCO,,1,1,L,,42,,,1,,,,,,
9/8/1998 12:00:00 AM,01yr02,B:FABCO1D10:30,,0.005,,,,,,,,,,,,,True,
9/8/1998 12:00:00 AM,01yr02,B:FABCO1D10:30,ABCO,,1,1,L,,4,,,1,,,,,,
9/11/1998 12:00:00 AM,01yr02,C:FPIJE1D05:3,,0.005,,,,,,,,,,,,,True,
9/11/1998 12:00:00 AM,01yr02,C:FPIJE1D05:3,ABCO,,1,5,L,,2,,,1,,,,,,
9/15/1998 12:00:00 AM,01yr02,C:FABCO1D10:41,,0.005,,,,,,,,,,,,,True,
9/15/1998 12:00:00 AM,01yr02,C:FABCO1D10:41,ABMA,,1,1,L,,23,,,1,,,,,,
6/16/1999 12:00:00 AM,01yr03,B:FABMA1D10:1,,0.005,,,,,,,,,,,,,True,
6/16/1999 12:00:00 AM,01yr03,B:FABMA1D10:1,ABMA,,1,1,L,,27,,,1,,,,,,
6/17/1999 12:00:00 AM,01yr03,B:FABCO1D10:40,,0.005,,,,,,,,,,,,,True,
6/17/1999 12:00:00 AM,01yr03,B:FABCO1D10:40,PIJE,,1,1,L,,1,,,1,,,,,,
6/17/1999 12:00:00 AM,01yr03,B:FABCO1D10:40,ABCO,,2,1,L,,70,,,1,,,,,,
6/17/1999 12:00:00 AM,01yr03,B:FABCO1D10:40,ABCO,,3,5,D,,3,,,1,,,,,,
6/23/1999 12:00:00 AM,01yr03,C:FABCO1D10:41,,0.005,,,,,,,,,,,,,True,
6/23/1999 12:00:00 AM,01yr03,C:FABCO1D10:41,ABMA,,1,1,L,,14,,,1,,,,,,
6/24/1999 12:00:00 AM,01yr03,B:FPIJE1D09:3,,0.005,,,,,,,,,,,,,True,
6/24/1999 12:00:00 AM,01yr03,B:FPIJE1D09:3,PIJE,,3,1,L,,3,,,1,,,,,,
6/24/1999 12:00:00 AM,01yr03,B:FPIJE1D09:3,ABCO,,2,5,D,,1,,,1,,,,,,
6/24/1999 12:00:00 AM,01yr03,B:FPIJE1D09:3,ABCO,,1,1,L,,172,,,1,,,,,,
6/28/1999 12:00:00 AM,01yr02,B:FABCO1D10:5,,0.005,,,,,,,,,,,,,True,
6/28/1999 12:00:00 AM,01yr02,B:FABCO1D10:5,ABCO,,1,1,L,,80,,,1,,,,,,
6/28/1999 12:00:00 AM,01yr02,B:FABCO1D10:5,ABCO,,2,2,L,,1,,,1,,,,,,
7/14/1999 12:00:00 AM,00Pre,C:FPIJE1D05:6,,0.005,,,,,,,,,,,,,True,
7/14/1999 12:00:00 AM,00Pre,C:FPIJE1D05:6,NA,,-2147483648,0,,,0,,,1,,,,,,
7/26/1999 12:00:00 AM,01yr05,B:FABCO1D10:13,,0.005,,,,,,,,,,,,,True,
7/26/1999 12:00:00 AM,01yr05,B:FABCO1D10:13,CADE27,,1,1,L,,1,,,1,,,,,,
7/26/1999 12:00:00 AM,01yr05,B:FABCO1D10:13,ABCO,,2,1,L,,1,,,1,,,,,,
7/28/1999 12:00:00 AM,01yr05,B:FPILA1D09:1,,0.005,,,,,,,,,,,,,True,
7/28/1999 12:00:00 AM,01yr05,B:FPILA1D09:1,NA,,-2147483648,0,,,0,,,1,,,,,,
7/30/1999 12:00:00 AM,01yr05,B:FPIJE1D05:5,,0.005,,,,,,,,,,,,,True,
7/30/1999 12:00:00 AM,01yr05,B:FPIJE1D05:5,ABCO,,1,3,L,,1,,,1,,,,,,
8/5/1999 12:00:00 AM,01yr03,B:FPIJE1D05:1,,0.005,,,,,,,,,,,,,True,
8/5/1999 12:00:00 AM,01yr03,B:FPIJE1D05:1,NA,,-2147483648,0,,,0,,,1,,,,,,
8/12/1999 12:00:00 AM,01yr03,C:FPIJE1D05:3,,0.005,,,,,,,,,,,,,True,
8/12/1999 12:00:00 AM,01yr03,C:FPIJE1D05:3,ABCO,,1,5,L,,2,,,1,,,,,,
8/17/1999 12:00:00 AM,00Pre,C:FPICO1D10:2,,0.005,,,,,,,,,,,,,True,
8/17/1999 12:00:00 AM,00Pre,C:FPICO1D10:2,PICO,,5,1,L,,1,,,1,,,,,,
8/17/1999 12:00:00 AM,00Pre,C:FPICO1D10:2,PICO,,4,2,L,,2,,,1,,,,,,
8/17/1999 12:00:00 AM,00Pre,C:FPICO1D10:2,ABCO,,3,1,L,,14,,,1,,,,,,
8/17/1999 12:00:00 AM,00Pre,C:FPICO1D10:2,ABCO,,6,4,L,,2,,,1,,,,,,
8/17/1999 12:00:00 AM,00Pre,C:FPICO1D10:2,ABCO,,2,2,L,,5,,,1,,,,,,
8/17/1999 12:00:00 AM,00Pre,C:FPICO1D10:2,ABCO,,1,3,L,,1,,,1,,,,,,
8/17/1999 12:00:00 AM,00Pre,C:FPICO1D10:2,ABCO,,7,5,L,,1,,,1,,,,,,
8/24/1999 12:00:00 AM,00Pre,C:FPIJE1D05:7,,0.005,,,,,,,,,,,,,True,
8/24/1999 12:00:00 AM,00Pre,C:FPIJE1D05:7,NA,,-2147483648,0,,,0,,,1,,,,,,
8/31/1999 12:00:00 AM,00Pre,C:FPIJE1D05:8,,0.005,,,,,,,,,,,,,True,
8/31/1999 12:00:00 AM,00Pre,C:FPIJE1D05:8,NA,,-2147483648,0,,,0,,,1,,,,,,
5/18/2000 12:00:00 AM,01yr03,B:FABCO1D10:5,,0.005,,,,,,,,,,,,,True,
5/18/2000 12:00:00 AM,01yr03,B:FABCO1D10:5,CADE27,,2,1,L,,2,,,1,,,,,,
5/18/2000 12:00:00 AM,01yr03,B:FABCO1D10:5,ABCO,,1,1,L,,72,,,1,,,,,,
5/22/2000 12:00:00 AM,01yr05,B:FABCO1D10:2,,0.005,,,,,,,,,,,,,True,
5/22/2000 12:00:00 AM,01yr05,B:FABCO1D10:2,ABCO,,3,1,L,,48,,,1,,,,,,
5/22/2000 12:00:00 AM,01yr05,B:FABCO1D10:2,ABCO,,1,5,D,,2,,,1,,,,,,
5/22/2000 12:00:00 AM,01yr05,B:FABCO1D10:2,ABCO,,2,6,D,,2,,,1,,,,,,
5/24/2000 12:00:00 AM,01yr05,B:FABCO1D10:3,,0.005,,,,,,,,,,,,,True,
5/24/2000 12:00:00 AM,01yr05,B:FABCO1D10:3,PIJE,,2,1,L,,1,,,1,,,,,,
5/24/2000 12:00:00 AM,01yr05,B:FABCO1D10:3,PILA,,1,1,L,,1,,,1,,,,,,
5/25/2000 12:00:00 AM,01yr05,B:FABCO1D10:4,,0.005,,,,,,,,,,,,,True,
5/25/2000 12:00:00 AM,01yr05,B:FABCO1D10:4,ABCO,,2,1,L,,12,,,1,,,,,,
5/25/2000 12:00:00 AM,01yr05,B:FABCO1D10:4,ABCO,,3,5,L,,2,,,1,,,,,,
5/25/2000 12:00:00 AM,01yr05,B:FABCO1D10:4,ABCO,,1,2,L,,4,,,1,,,,,,
5/25/2000 12:00:00 AM,01yr05,B:FABCO1D10:4,ABCO,,4,3,L,,2,,,1,,,,,,
5/26/2000 12:00:00 AM,01yr05,B:FABCO1D10:6,,0.005,,,,,,,,,,,,,True,
5/26/2000 12:00:00 AM,01yr05,B:FABCO1D10:6,ABCO,,1,1,L,,16,,,1,,,,,,
6/5/2000 12:00:00 AM,01yr05,B:FABCO1D10:7,,0.005,,,,,,,,,,,,,True,
6/5/2000 12:00:00 AM,01yr05,B:FABCO1D10:7,PICO,,2,1,L,,5,,,1,,,,,,
6/5/2000 12:00:00 AM,01yr05,B:FABCO1D10:7,PICO,,3,3,L,,13,,,1,,,,,,
6/5/2000 12:00:00 AM,01yr05,B:FABCO1D10:7,PICO,,1,2,L,,14,,,1,,,,,,
6/5/2000 9:48:31 AM,00Pre,C FABCO1D10-37,,0.005,,,,,,,,,,,,,True,
6/5/2000 9:48:31 AM,00Pre,C FABCO1D10-37,ABCO,,-2147483648,3,L,,1,,,1,,,,,,
6/5/2000 9:48:31 AM,00Pre,C FABCO1D10-37,ABCO,,-2147483647,1,L,,5,,,1,,,,,,
6/6/2000 12:00:00 AM,01yr05,B:FABCO1D10:8,,0.005,,,,,,,,,,,,,True,
6/6/2000 12:00:00 AM,01yr05,B:FABCO1D10:8,CADE27,,3,1,L,,6,,,1,,,,,,
6/6/2000 12:00:00 AM,01yr05,B:FABCO1D10:8,PICO,,1,2,L,,2,,,1,,,,,,
6/6/2000 12:00:00 AM,01yr05,B:FABCO1D10:8,PICO,,2,3,L,,2,,,1,,,,,,
6/6/2000 12:00:00 AM,01yr05,B:FABCO1D10:8,ABCO,,4,1,L,,9,,,1,,,,,,
6/15/2000 10:18:11 AM,00Pre,C FPIJE1D05-12,,0.005,,,,,,,,,,,,,True,
6/15/2000 10:18:11 AM,00Pre,C FPIJE1D05-12,ABCO,,-2147483648,1,L,,14,,,1,,,,,,
6/15/2000 10:18:11 AM,00Pre,C FPIJE1D05-12,ABCO,,-2147483647,4,L,,1,,,1,,,,,,
6/15/2000 10:18:11 AM,00Pre,C FPIJE1D05-12,ABCO,,-2147483646,3,L,,1,,,1,,,,,,
6/15/2000 11:10:57 AM,00Pre,C FABCO1D10-38,,0.005,,,,,,,,,,,,,True,
6/15/2000 11:10:57 AM,00Pre,C FABCO1D10-38,ABCO,,-2147483648,5,L,,3,,,1,,,,,,
6/15/2000 11:10:57 AM,00Pre,C FABCO1D10-38,ABCO,,-2147483647,4,D,,1,,,1,,,,,,
6/15/2000 11:10:57 AM,00Pre,C FABCO1D10-38,ABCO,,-2147483646,4,L,,1,,,1,,,,,,
6/15/2000 11:10:57 AM,00Pre,C FABCO1D10-38,ABCO,,-2147483645,6,L,,1,,,1,,,,,,
6/15/2000 11:10:57 AM,00Pre,C FABCO1D10-38,ABCO,,-2147483644,2,D,,1,,,1,,,,,,
6/15/2000 11:10:57 AM,00Pre,C FABCO1D10-38,ABCO,,-2147483643,1,L,,23,,,1,,,,,,
6/15/2000 11:36:03 AM,00Pre,C FPIJE1D06-08,,0.005,,,,,,,,,,,,,True,
6/15/2000 11:36:03 AM,00Pre,C FPIJE1D06-08,ABCO,,-2147483648,1,,,3,,,1,,,,,,
6/15/2000 11:36:03 AM,00Pre,C FPIJE1D06-08,ABCO,,-2147483647,2,,,2,,,1,,,,,,
6/15/2000 11:36:03 AM,00Pre,C FPIJE1D06-08,ABCO,,-2147483646,5,,,1,,,1,,,,,,
6/15/2000 1:05:31 PM,00Pre,C FABCO1D10-36,,0.005,,,,,,,,,,,,,True,
6/15/2000 1:05:31 PM,00Pre,C FABCO1D10-36,PIJE,,-2147483646,1,L,,3,,,1,,,,,,
6/15/2000 1:05:31 PM,00Pre,C FABCO1D10-36,CADE27,,-2147483648,4,L,,2,,,1,,,,,,
6/15/2000 1:05:31 PM,00Pre,C FABCO1D10-36,CADE27,,-2147483647,2,L,,1,,,1,,,,,,
6/15/2000 1:05:31 PM,00Pre,C FABCO1D10-36,ABCO,,-2147483645,1,L,,2,,,1,,,,,,
8/11/2000 12:00:00 AM,01yr05,B:FABCO1D10:18,,0.005,,,,,,,,,,,,,True,
8/11/2000 12:00:00 AM,01yr05,B:FABCO1D10:18,ABCO,,1,1,L,,23,,,1,,,,,,
8/30/2000 12:00:00 AM,01yr05,B:FABCO1D10:25,,0.005,,,,,,,,,,,,,True,
8/30/2000 12:00:00 AM,01yr05,B:FABCO1D10:25,CADE27,,1,1,L,,11,,,1,,,,,,
8/31/2000 12:00:00 AM,01yr05,B:FABCO1D10:26,,0.005,,,,,,,,,,,,,True,
8/31/2000 12:00:00 AM,01yr05,B:FABCO1D10:26,CADE27,,1,1,L,,3,,,1,,,,,,
8/31/2000 12:00:00 AM,01yr05,B:FABCO1D10:26,ABCO,,2,1,L,,5,,,1,,,,,,
9/12/2000 12:00:00 AM,01yr10,C:FABCO1D10:10,,0.005,,,,,,,,,,,,,True,
9/12/2000 12:00:00 AM,01yr10,C:FABCO1D10:10,ABCO,,1,5,D,,1,,,1,,,,,,
9/12/2000 12:00:00 AM,01yr10,C:FABCO1D10:10,ABCO,,5,5,L,,2,,,1,,,,,,
9/12/2000 12:00:00 AM,01yr10,C:FABCO1D10:10,ABCO,,2,6,L,,3,,,1,,,,,,
9/12/2000 12:00:00 AM,01yr10,C:FABCO1D10:10,ABCO,,3,2,L,,2,,,1,,,,,,
9/12/2000 12:00:00 AM,01yr10,C:FABCO1D10:10,ABCO,,4,4,L,,3,,,1,,,,,,
9/18/2000 12:00:00 AM,01yr05,B:FABCO1D10:24,,0.005,,,,,,,,,,,,,True,
9/18/2000 12:00:00 AM,01yr05,B:FABCO1D10:24,CADE27,,2,1,L,,38,,,1,,,,,,
9/18/2000 12:00:00 AM,01yr05,B:FABCO1D10:24,ABCO,,1,1,L,,17,,,1,,,,,,
6/18/2001 12:00:00 AM,01yr05,B:FPIJE1D05:1,,0.005,,,,,,,,,,,,,True,
6/18/2001 12:00:00 AM,01yr05,B:FPIJE1D05:1,NA,,-2147483648,0,,,0,,,1,,,,,,
6/20/2001 12:00:00 AM,01yr05,C:FABCO1D10:41,,0.005,,,,,,,,,,,,,True,
6/20/2001 12:00:00 AM,01yr05,C:FABCO1D10:41,ABCO,,1,1,L,,14,,,1,,,,,,
6/26/2001 12:00:00 AM,01yr05,B:FABCO1D10:40,,0.005,,,,,,,,,,,,,True,
6/26/2001 12:00:00 AM,01yr05,B:FABCO1D10:40,PIJE,,2,1,L,,3,,,1,,,,,,
6/26/2001 12:00:00 AM,01yr05,B:FABCO1D10:40,ABCO,,3,1,L,,71,,,1,,,,,,
6/26/2001 12:00:00 AM,01yr05,B:FABCO1D10:40,ABCO,,1,1,D,,1,,,1,,,,,,
6/27/2001 12:00:00 AM,01yr05,B:FPIJE1D09:3,,0.005,,,,,,,,,,,,,True,
6/27/2001 12:00:00 AM,01yr05,B:FPIJE1D09:3,ABCO,,2,1,L,,197,,,1,,,,,,
6/27/2001 12:00:00 AM,01yr05,B:FPIJE1D09:3,ABCO,,1,6,D,,1,,,1,,,,,,
7/20/2001 12:00:00 AM,01yr05,B:FABMA1D10:1,,0.005,,,,,,,,,,,,,True,
7/20/2001 12:00:00 AM,01yr05,B:FABMA1D10:1,PIJE,,3,1,L,,1,,,1,,,,,,
7/20/2001 12:00:00 AM,01yr05,B:FABMA1D10:1,PIJE,,1,2,L,,1,,,1,,,,,,
7/20/2001 12:00:00 AM,01yr05,B:FABMA1D10:1,ABMA,,4,1,D,,2,,,1,,,,,,
7/20/2001 12:00:00 AM,01yr05,B:FABMA1D10:1,ABMA,,5,2,L,,3,,,1,,,,,,
7/20/2001 12:00:00 AM,01yr05,B:FABMA1D10:1,ABMA,,2,1,L,,29,,,1,,,,,,
7/31/2001 12:00:00 AM,01yr05,C:FPIJE1D05:3,,0.005,,,,,,,,,,,,,True,
7/31/2001 12:00:00 AM,01yr05,C:FPIJE1D05:3,NA,,-2147483648,0,,,0,,,1,,,,,,
6/20/2002 12:00:00 AM,01yr10,C:FABCO1D10:1,,0.005,,,,,,,,,,,,,True,
6/20/2002 12:00:00 AM,01yr10,C:FABCO1D10:1,PIJE,,2,1,L,,3,,,1,,,,,,
6/20/2002 12:00:00 AM,01yr10,C:FABCO1D10:1,CADE27,,5,1,L,,13,,,1,,,,,,
6/20/2002 12:00:00 AM,01yr10,C:FABCO1D10:1,CADE27,,3,1,D,,1,,,1,,,,,,
6/20/2002 12:00:00 AM,01yr10,C:FABCO1D10:1,ABMA,,1,1,L,,3,,,1,,,,,,
6/20/2002 12:00:00 AM,01yr10,C:FABCO1D10:1,ABMA,,12,1,D,,1,,,1,,,,,,
6/20/2002 12:00:00 AM,01yr10,C:FABCO1D10:1,ABMA,,7,1,L,,5,,,1,,,,,,
6/20/2002 12:00:00 AM,01yr10,C:FABCO1D10:1,ABCO,,11,5,D,,1,,,1,,,,,,
6/20/2002 12:00:00 AM,01yr10,C:FABCO1D10:1,ABCO,,4,1,D,,2,,,1,,,,,,
6/20/2002 12:00:00 AM,01yr10,C:FABCO1D10:1,ABCO,,8,2,L,,1,,,1,,,,,,
6/20/2002 12:00:00 AM,01yr10,C:FABCO1D10:1,ABCO,,9,5,L,,1,,,1,,,,,,
6/20/2002 12:00:00 AM,01yr10,C:FABCO1D10:1,ABCO,,6,6,L,,1,,,1,,,,,,
6/20/2002 12:00:00 AM,01yr10,C:FABCO1D10:1,ABCO,,10,1,L,,9,,,1,,,,,,
6/28/2002 12:00:00 AM,01yr10,B:FABCO1D10:16,,0.005,,,,,,,,,,,,,True,
6/28/2002 12:00:00 AM,01yr10,B:FABCO1D10:16,PIJE,,3,1,L,,1,,,1,,,,,,
6/28/2002 12:00:00 AM,01yr10,B:FABCO1D10:16,ABCO,,2,1,L,,5,,,1,,,,,,
6/28/2002 12:00:00 AM,01yr10,B:FABCO1D10:16,ABCO,,1,1,D,,3,,,1,,,,,,
7/8/2002 12:00:00 AM,01yr10,B:FABCO1D10:14,,0.005,,,,,,,,,,,,,True,
7/8/2002 12:00:00 AM,01yr10,B:FABCO1D10:14,CADE27,,1,1,L,,1,,,1,,,,,,
7/8/2002 12:00:00 AM,01yr10,B:FABCO1D10:14,ABCO,,2,1,L,,5,,,1,,,,,,
7/18/2002 12:00:00 AM,01yr05,B:FABCO1D10:5,,0.005,,,,,,,,,,,,,True,
7/18/2002 12:00:00 AM,01yr05,B:FABCO1D10:5,CADE27,,1,1,L,,3,,,1,,,,,,
7/18/2002 12:00:00 AM,01yr05,B:FABCO1D10:5,ABCO,,2,1,L,,44,,,1,,,,,,
7/18/2002 12:00:00 AM,01yr05,B:FABCO1D10:5,ABCO,,3,1,D,,3,,,1,,,,,,
6/18/2003 12:00:00 AM,00Pre,B:FABCO1D10:45,,0.005,,,,,,,,,,,,,True,
6/18/2003 12:00:00 AM,00Pre,B:FABCO1D10:45,ABCO,,1,1,L,,13,,,1,,,,,,
7/9/2003 12:00:00 AM,01yr10,B:FABCO1D10:28,,0.005,,,,,,,,,,,,,True,
7/9/2003 12:00:00 AM,01yr10,B:FABCO1D10:28,ABCO,,1,1,L,,3,,,1,,,,,,
6/15/2004 12:00:00 AM,01yr10,C:FABCO1D10:20,,0.005,,,,,,,,,,,,,True,
6/15/2004 12:00:00 AM,01yr10,C:FABCO1D10:20,ABCO,,1,1,L,,50,,,1,,,,,,
6/16/2004 12:00:00 AM,01yr10,B:FABCO1D10:13,,0.005,,,,,,,,,,,,,True,
6/16/2004 12:00:00 AM,01yr10,B:FABCO1D10:13,ABCO,,1,1,L,,3,,,1,,,,,,
6/18/2004 12:00:00 AM,01yr10,C:FABCO1D10:12,,0.005,,,,,,,,,,,,,True,
6/18/2004 12:00:00 AM,01yr10,C:FABCO1D10:12,CADE27,,1,1,L,,1,,,1,,,,,,
7/20/2004 12:00:00 AM,01yr10,B:FPIJE1D05:5,,0.005,,,,,,,,,,,,,True,
7/20/2004 12:00:00 AM,01yr10,B:FPIJE1D05:5,CADE27,,1,1,L,,1,,,1,,,,,,
7/20/2004 12:00:00 AM,01yr10,B:FPIJE1D05:5,ABCO,,2,3,L,,2,,,1,,,,,,
7/30/2004 12:00:00 AM,01yr10,B:FPILA1D09:1,,0.005,,,,,,,,,,,,,True,
7/30/2004 12:00:00 AM,01yr10,B:FPILA1D09:1,NA,,-2147483648,0,,,0,,,1,,,,,,
6/22/2005 12:00:00 AM,01yr10,B:FABCO1D10:30,,0.005,,,,,,,,,,,,,True,
6/22/2005 12:00:00 AM,01yr10,B:FABCO1D10:30,PIJE,,1,2,L,,1,,,1,,,,,,
6/22/2005 12:00:00 AM,01yr10,B:FABCO1D10:30,ABCO,,2,2,L,,2,,,1,,,,,,
6/30/2005 12:00:00 AM,01yr10,B:FABCO1D10:24,,0.005,,,,,,,,,,,,,True,
6/30/2005 12:00:00 AM,01yr10,B:FABCO1D10:24,CADE27,,2,2,L,,1,,,1,,,,,,
6/30/2005 12:00:00 AM,01yr10,B:FABCO1D10:24,CADE27,,1,1,L,,14,,,1,,,,,,
6/30/2005 12:00:00 AM,01yr10,B:FABCO1D10:24,ABCO,,3,1,L,,6,,,1,,,,,,
7/7/2005 12:00:00 AM,01yr10,B:FABCO1D10:26,,0.005,,,,,,,,,,,,,True,
7/7/2005 12:00:00 AM,01yr10,B:FABCO1D10:26,NA,,-2147483648,0,,,0,,,1,,,,,,
7/18/2005 12:00:00 AM,01yr10,B:FABCO1D10:25,,0.005,,,,,,,,,,,,,True,
7/18/2005 12:00:00 AM,01yr10,B:FABCO1D10:25,CADE27,,1,1,L,,12,,,1,,,,,,
7/18/2005 12:00:00 AM,01yr10,B:FABCO1D10:25,CADE27,,2,2,L,,1,,,1,,,,,,
7/18/2005 12:00:00 AM,01yr10,B:FABCO1D10:25,ABCO,,3,1,L,,13,,,1,,,,,,
7/29/2005 12:00:00 AM,01yr10,B:FABCO1D10:4,,0.005,,,,,,,,,,,,,True,
7/29/2005 12:00:00 AM,01yr10,B:FABCO1D10:4,ABCO,,2,4,L,,1,,,1,,,,,,
7/29/2005 12:00:00 AM,01yr10,B:FABCO1D10:4,ABCO,,1,5,L,,1,,,1,,,,,,
7/29/2005 12:00:00 AM,01yr10,B:FABCO1D10:4,ABCO,,4,6,L,,1,,,1,,,,,,
7/29/2005 12:00:00 AM,01yr10,B:FABCO1D10:4,ABCO,,3,3,L,,2,,,1,,,,,,
8/2/2005 12:00:00 AM,01yr10,B:FABCO1D10:2,,0.005,,,,,,,,,,,,,True,
8/2/2005 12:00:00 AM,01yr10,B:FABCO1D10:2,ABCO,,1,1,L,,9,,,1,,,,,,
8/4/2005 12:00:00 AM,01yr10,B:FABCO1D10:3,,0.005,,,,,,,,,,,,,True,
8/4/2005 12:00:00 AM,01yr10,B:FABCO1D10:3,NA,,-2147483648,0,,,0,,,1,,,,,,
8/7/2005 12:00:00 AM,01yr10,C:FABCO1D10:19,,0.005,,,,,,,,,,,,,True,
8/7/2005 12:00:00 AM,01yr10,C:FABCO1D10:19,PIJE,,1,3,L,,1,,,1,,,,,,
8/10/2005 12:00:00 AM,01yr10,B:FABCO1D10:6,,0.005,,,,,,,,,,,,,True,
8/10/2005 12:00:00 AM,01yr10,B:FABCO1D10:6,ABCO,,1,1,L,,8,,,1,,,,,,
8/11/2005 12:00:00 AM,01yr10,B:FABCO1D10:8,,0.005,,,,,,,,,,,,,True,
8/11/2005 12:00:00 AM,01yr10,B:FABCO1D10:8,CADE27,,2,2,L,,1,,,1,,,,,,
8/11/2005 12:00:00 AM,01yr10,B:FABCO1D10:8,ABCO,,1,4,L,,1,,,1,,,,,,
8/16/2005 12:00:00 AM,01yr10,B:FABCO1D10:18,,0.005,,,,,,,,,,,,,True,
8/16/2005 12:00:00 AM,01yr10,B:FABCO1D10:18,ABCO,,1,1,L,,24,,,1,,,,,,
11/3/2005 12:00:00 AM,01yr10,B:FABCO1D10:7,,0.005,,,,,,,,,,,,,True,
11/3/2005 12:00:00 AM,01yr10,B:FABCO1D10:7,PIJE,,4,3,L,,1,,,1,,,,,,
11/3/2005 12:00:00 AM,01yr10,B:FABCO1D10:7,PICO,,5,4,L,,7,,,1,,,,,,
11/3/2005 12:00:00 AM,01yr10,B:FABCO1D10:7,PICO,,2,2,L,,7,,,1,,,,,,
11/3/2005 12:00:00 AM,01yr10,B:FABCO1D10:7,PICO,,1,6,L,,2,,,1,,,,,,
11/3/2005 12:00:00 AM,01yr10,B:FABCO1D10:7,PICO,,6,5,L,,8,,,1,,,,,,
11/3/2005 12:00:00 AM,01yr10,B:FABCO1D10:7,PICO,,3,3,L,,18,,,1,,,,,,
11/3/2005 12:00:00 AM,01yr10,B:FABCO1D10:7,PICO,,8,1,L,,7,,,1,,,,,,
11/3/2005 12:00:00 AM,01yr10,B:FABCO1D10:7,ABCO,,7,1,L,,5,,,1,,,,,,
7/26/2006 12:00:00 AM,01yr10,B:FABMA1D10:1,,0.005,,,,,,,,,,,,,True,
7/26/2006 12:00:00 AM,01yr10,B:FABMA1D10:1,ABMA,,1,1,L,,17,,,1,,,,,,
7/26/2006 12:00:00 AM,01yr10,B:FABMA1D10:1,ABMA,,3,2,L,,1,,,1,,,,,,
7/26/2006 12:00:00 AM,01yr10,B:FABMA1D10:1,PICO,,2,3,L,,1,,,1,,,,,,
7/26/2006 12:00:00 AM,01yr10,B:FABMA1D10:1,ABCO,,4,3,L,,3,,,1,,,,,,
8/2/2006 12:00:00 AM,01yr10,B:FPIJE1D05:1,,0.005,,,,,,,,,,,,,True,
8/2/2006 12:00:00 AM,01yr10,B:FPIJE1D05:1,NA,,-2147483648,0,,,0,,,1,,,,,,
8/3/2006 12:00:00 AM,01yr10,B:FPIJE1D09:3,,0.005,,,,,,,,,,,,,True,
8/3/2006 12:00:00 AM,01yr10,B:FPIJE1D09:3,ABCO,,1,1,L,,25,,,1,,,,,,
8/10/2006 12:00:00 AM,01yr10,C:FABCO1D10:41,,0.005,,,,,,,,,,,,,True,
8/10/2006 12:00:00 AM,01yr10,C:FABCO1D10:41,ABCO,,1,1,L,,1,,,1,,,,,,
8/18/2006 12:00:00 AM,01yr10,B:FABCO1D10:40,,0.005,,,,,,,,,,,,,True,
8/18/2006 12:00:00 AM,01yr10,B:FABCO1D10:40,PIJE,,2,1,L,,1,,,1,,,,,,
8/18/2006 12:00:00 AM,01yr10,B:FABCO1D10:40,ABCO,,1,1,L,,10,,,1,,,,,,
11/20/2006 12:00:00 AM,01Post,B:FABCO1D10:45,,0.005,,,,,,,,,,,,,True,
11/20/2006 12:00:00 AM,01Post,B:FABCO1D10:45,ABCO,,1,1,L,,13,,,1,,,,,,
6/29/2007 12:00:00 AM,01yr10,B:FABCO1D10:5,,0.005,,,,,,,,,,,,,True,
6/29/2007 12:00:00 AM,01yr10,B:FABCO1D10:5,ABCO,,2,1,D,,3,,,1,,,,,,
6/29/2007 12:00:00 AM,01yr10,B:FABCO1D10:5,ABCO,,1,2,L,,2,,,1,,,,,,
10/23/2007 12:00:00 AM,01yr01,B:FABCO1D10:45,,0.005,,,,,,,,,,,,,True,
10/23/2007 12:00:00 AM,01yr01,B:FABCO1D10:45,NA,,-2147483648,0,,,0,,,1,,,,,,
7/23/2008 12:00:00 AM,01yr10,C:FABCO1D10:42,,0.005,,,,,,,,,,,,,True,
7/23/2008 12:00:00 AM,01yr10,C:FABCO1D10:42,CADE27,,8,6,L,,2,,,1,,,,,,
7/23/2008 12:00:00 AM,01yr10,C:FABCO1D10:42,CADE27,,11,1,L,,51,,,1,,,,,,
7/23/2008 12:00:00 AM,01yr10,C:FABCO1D10:42,PILA,,6,1,L,,2,,,1,,,,,,
7/23/2008 12:00:00 AM,01yr10,C:FABCO1D10:42,PICO,,7,1,L,,5,,,1,,,,,,
7/23/2008 12:00:00 AM,01yr10,C:FABCO1D10:42,ABCO,,9,5,D,,1,,,1,,,,,,
7/23/2008 12:00:00 AM,01yr10,C:FABCO1D10:42,ABCO,,5,3,L,,1,,,1,,,,,,
7/23/2008 12:00:00 AM,01yr10,C:FABCO1D10:42,ABCO,,12,6,L,,1,,,1,,,,,,
7/23/2008 12:00:00 AM,01yr10,C:FABCO1D10:42,ABCO,,1,5,D,,1,,,1,,,,,,
7/23/2008 12:00:00 AM,01yr10,C:FABCO1D10:42,ABCO,,3,1,L,,11,,,1,,,,,,
7/23/2008 12:00:00 AM,01yr10,C:FABCO1D10:42,ABCO,,4,5,L,,1,,,1,,,,,,
7/23/2008 12:00:00 AM,01yr10,C:FABCO1D10:42,ABCO,,2,5,L,,1,,,1,,,,,,
7/23/2008 12:00:00 AM,01yr10,C:FABCO1D10:42,ABCO,,10,4,L,,2,,,1,,,,,,
8/3/2010 11:31:08 AM,01yr15,B:FABCO1D10:8,,0.005,,,,,,,,,,,,,True,
8/3/2010 11:31:08 AM,01yr15,B:FABCO1D10:8,PIJE,,-2147483648,3,L,M,2,,,1,,,,,,
8/3/2010 1:02:26 PM,01yr15,C:FABCO1D10:10,,0.005,,,,,,,,,,,,,True,
8/3/2010 1:02:26 PM,01yr15,C:FABCO1D10:10,PIJE,,-2147483648,1,L,,2,,,1,,,,,,
8/3/2010 3:56:01 PM,01yr15,B:FABCO1D10:7,,0.005,,,,,,,,,,,,,True,
8/3/2010 3:56:01 PM,01yr15,B:FABCO1D10:7,PIJE,,-2147483642,2,L,,1,,,1,,,,,,
8/3/2010 3:56:01 PM,01yr15,B:FABCO1D10:7,PICO,,-2147483648,2,L,,3,,,1,,,,,,
8/3/2010 3:56:01 PM,01yr15,B:FABCO1D10:7,PICO,,-2147483647,4,L,,10,,,1,,,,,,
8/3/2010 3:56:01 PM,01yr15,B:FABCO1D10:7,PICO,,-2147483646,5,L,,7,,,1,,,,,,
8/3/2010 3:56:01 PM,01yr15,B:FABCO1D10:7,PICO,,-2147483645,3,L,,4,,,1,,,,,,
8/3/2010 3:56:01 PM,01yr15,B:FABCO1D10:7,PICO,,-2147483644,1,L,,1,,,1,,,,,,
8/3/2010 3:56:01 PM,01yr15,B:FABCO1D10:7,ABCO,,-2147483643,2,L,,2,,,1,,,,,,
8/3/2010 3:56:01 PM,01yr15,B:FABCO1D10:7,ABCO,,-2147483641,3,L,,1,,,1,,,,,,
8/3/2010 3:56:01 PM,01yr15,B:FABCO1D10:7,ABCO,,-2147483640,1,L,,1,,,1,,,,,,
8/3/2010 3:56:01 PM,01yr15,B:FABCO1D10:7,ABCO,,-2147483639,2,L,,1,,,1,,,,,,
8/4/2010 11:31:29 AM,01yr15,B:FABCO1D10:6,,0.005,,,,,,,,,,,,,True,
8/4/2010 11:31:29 AM,01yr15,B:FABCO1D10:6,PIJE,,-2147483647,1,L,I,1,,,1,,,,,,
8/4/2010 11:31:29 AM,01yr15,B:FABCO1D10:6,ABMA,,-2147483646,1,L,I,9,,,1,,,,,,
8/4/2010 11:31:29 AM,01yr15,B:FABCO1D10:6,ABCO,,-2147483648,1,L,I,57,,,1,,,,,,
8/4/2010 12:52:52 PM,01yr15,B:FABCO1D10:18,,0.005,,,,,,,,,,,,,True,
8/4/2010 12:52:52 PM,01yr15,B:FABCO1D10:18,PIJE,,-2147483647,1,L,,2,,,1,,,,,,
8/4/2010 12:52:52 PM,01yr15,B:FABCO1D10:18,ABCO,,-2147483648,1,L,,27,,,1,,,,,,
8/5/2010 11:56:14 AM,01yr15,B:FABCO1D10:26,,0.005,,,,,,,,,,,,,True,
8/5/2010 11:56:14 AM,01yr15,B:FABCO1D10:26,PIJE,,-2147483647,1,L,,1,,,1,dying,,,,,
8/5/2010 11:56:14 AM,01yr15,B:FABCO1D10:26,ABCO,,-2147483648,1,L,,1,,,1,,,,,,
8/5/2010 1:01:00 PM,01yr15,B:FABCO1D10:24,,0.005,,,,,,,,,,,,,True,
8/5/2010 1:01:00 PM,01yr15,B:FABCO1D10:24,CADE27,,-2147483648,2,L,,8,,,1,,,,,,
8/5/2010 1:01:00 PM,01yr15,B:FABCO1D10:24,CADE27,,-2147483647,1,L,,15,,,1,,,,,,
8/5/2010 1:01:00 PM,01yr15,B:FABCO1D10:24,CADE27,,-2147483646,1,L,,7,,,1,,,,,,
8/5/2010 1:21:50 PM,01yr15,B:FPIJE1D09:3,,0.005,,,,,,,,,,,,,True,
8/5/2010 1:21:50 PM,01yr15,B:FPIJE1D09:3,ABMA,,-2147483647,1,L,,1,,,1,,,,,,
8/5/2010 1:21:50 PM,01yr15,B:FPIJE1D09:3,PICO,,-2147483645,1,L,,2,,,1,,,,,,
8/5/2010 1:21:50 PM,01yr15,B:FPIJE1D09:3,ABCO,,-2147483648,1,L,,27,,,1,,,,,,
8/5/2010 1:21:50 PM,01yr15,B:FPIJE1D09:3,ABCO,,-2147483646,2,L,,1,,,1,,,,,,
8/18/2010 3:41:19 PM,01yr15,B:FABCO1D10:40,,0.005,,,,,,,,,,,,,True,
8/18/2010 3:41:19 PM,01yr15,B:FABCO1D10:40,ABMA,,-2147483647,1,L,,1,,,1,,,,,,
8/18/2010 3:41:19 PM,01yr15,B:FABCO1D10:40,ABCO,,-2147483648,1,L,,12,,,1,,,,,,
8/31/2010 11:12:47 AM,01yr15,C:FABCO1D10:22,,0.005,,,,,,,,,,,,,True,
8/31/2010 11:12:47 AM,01yr15,C:FABCO1D10:22,ABCO,,-2147483648,1,L,,1,,,1,,,,,,
8/31/2010 11:12:47 AM,01yr15,C:FABCO1D10:22,ABCO,,-2147483647,5,L,,1,,,1,,,,,,
9/7/2010 1:09:13 PM,01yr15,C:FABCO1D10:19,,0.005,,,,,,,,,,,,,True,
9/7/2010 1:09:13 PM,01yr15,C:FABCO1D10:19,PIJE,,-2147483648,4,L,,1,,,1,,,,,,
9/8/2010 12:57:17 PM,01yr15,C:FABCO1D10:20,,0.005,,,,,,,,,,,,,True,
9/8/2010 12:57:17 PM,01yr15,C:FABCO1D10:20,ABCO,,-2147483648,2,L,,1,,,1,,,,,,
9/8/2010 12:57:17 PM,01yr15,C:FABCO1D10:20,ABCO,,-2147483647,1,L,,7,,,1,,,,,,
10/6/2010 11:00:15 AM,01yr15,C:FABCO1D10:21,,0.005,,,,,,,,,,,,,True,
10/6/2010 11:00:15 AM,01yr15,C:FABCO1D10:21,CADE27,,-2147483648,1,L,,11,,,1,,,,,,
10/6/2010 11:00:15 AM,01yr15,C:FABCO1D10:21,CADE27,,-2147483647,2,L,,8,,,1,,,,,,
10/6/2010 11:00:15 AM,01yr15,C:FABCO1D10:21,CADE27,,-2147483646,3,L,,2,,,1,,,,,,
10/6/2010 1:08:26 PM,01yr15,C:FABCO1D10:23,,0.005,,,,,,,,,,,,,True,
10/6/2010 1:08:26 PM,01yr15,C:FABCO1D10:23,CADE27,,-2147483647,1,L,,1,,,1,,,,,,
10/6/2010 1:08:26 PM,01yr15,C:FABCO1D10:23,ABCO,,-2147483648,1,L,,1,,,1,,,,,,
10/7/2010 11:19:02 AM,01yr15,B:FABMA1D10:1,,0.005,,,,,,,,,,,,,True,
10/7/2010 11:19:02 AM,01yr15,B:FABMA1D10:1,PICO,,-2147483645,3,L,,1,,,1,,,,,,
10/7/2010 11:19:02 AM,01yr15,B:FABMA1D10:1,ABCO,,-2147483648,1,L,,4,,,1,,,,,,
10/7/2010 11:19:02 AM,01yr15,B:FABMA1D10:1,ABCO,,-2147483647,2,L,,10,,,1,,,,,,
10/7/2010 11:19:02 AM,01yr15,B:FABMA1D10:1,ABCO,,-2147483646,3,L,,5,,,1,,,,,,
10/7/2010 4:06:22 PM,01yr15,C:FABCO1D10:41,,0.005,,,,,,,,,,,,,True,
10/7/2010 4:06:22 PM,01yr15,C:FABCO1D10:41,ABMA,,-2147483647,1,L,,1,,,1,,,,,,
10/7/2010 4:06:22 PM,01yr15,C:FABCO1D10:41,ABCO,,-2147483648,1,L,,5,,,1,,,,,,
10/28/2010 12:53:25 PM,01yr15,B:FABCO1D10:4,,0.005,,,,,,,,,,,,,True,
10/28/2010 12:53:25 PM,01yr15,B:FABCO1D10:4,ABCO,,-2147483648,3,L,,7,,,1,,,,,,
10/28/2010 12:53:25 PM,01yr15,B:FABCO1D10:4,ABCO,,-2147483647,2,L,,1,,,1,,,,,,
10/28/2010 12:53:25 PM,01yr15,B:FABCO1D10:4,ABCO,,-2147483646,1,L,,8,,,1,,,,,,
10/28/2010 2:06:29 PM,01yr15,C:FABCO1D10:1,,0.005,,,,,,,,,,,,,True,
10/28/2010 2:06:29 PM,01yr15,C:FABCO1D10:1,CADE27,,-2147483648,1,L,,3,,,1,,,,,,
10/28/2010 2:06:29 PM,01yr15,C:FABCO1D10:1,ABCO,,-2147483647,5,L,,1,,,1,,,,,,
10/28/2010 2:06:29 PM,01yr15,C:FABCO1D10:1,ABCO,,-2147483646,5,D,,3,,,1,,,,,,
8/12/2013 10:13:19 AM,01yr15,C:FABCO1D10:42,,0.005,,,,,,,,,,,,,True,
8/12/2013 10:13:19 AM,01yr15,C:FABCO1D10:42,CADE27,,-2147483645,2,L,,4,,,1,,,,,,
8/12/2013 10:13:19 AM,01yr15,C:FABCO1D10:42,CADE27,,-2147483644,1,L,,19,,,1,,,,,,
8/12/2013 10:13:19 AM,01yr15,C:FABCO1D10:42,PILA,,-2147483648,2,L,,6,,,1,,,,,,
8/12/2013 10:13:19 AM,01yr15,C:FABCO1D10:42,PILA,,-2147483646,1,L,,2,,,1,,,,,,
8/12/2013 10:13:19 AM,01yr15,C:FABCO1D10:42,ABCO,,-2147483647,1,L,,6,,,1,,,,,,
8/12/2013 10:13:19 AM,01yr15,C:FABCO1D10:42,ABCO,,-2147483643,4,L,,4,,,1,,,,,,
8/19/2013 9:46:54 AM,01yr20,C:FABCO1D10:1,,0.005,,,,,,,,,,,,,True,
8/19/2013 9:46:54 AM,01yr20,C:FABCO1D10:1,ABCO,,-2147483648,3,L,,2,,,1,,,,,,
8/22/2013 4:43:20 PM,01yr15,B:FABCO1D10:5,,0.005,,,,,,,,,,,,,True,
8/22/2013 4:43:20 PM,01yr15,B:FABCO1D10:5,ABCO,,-2147483648,1,L,,15,,,1,,,,,,
8/22/2013 4:43:20 PM,01yr15,B:FABCO1D10:5,ABCO,,-2147483647,3,L,,1,,,1,,,,,,
8/22/2013 4:43:20 PM,01yr15,B:FABCO1D10:5,ABCO,,-2147483646,2,L,,2,,,1,,,,,,
8/22/2013 4:43:20 PM,01yr15,B:FABCO1D10:5,ABCO,,-2147483645,1,D,,1,,,1,,,,,,
8/26/2013 9:41:56 AM,01yr20,C:FABCO1D10:10,,0.005,,,,,,,,,,,,,True,
8/26/2013 9:41:56 AM,01yr20,C:FABCO1D10:10,ABCO,,-2147483648,3,L,,1,,,1,,,,,,
8/27/2013 9:53:01 AM,01yr20,C:FABCO1D10:23,,0.005,,,,,,,,,,,,,True,
8/27/2013 9:53:01 AM,01yr20,C:FABCO1D10:23,CADE27,,-2147483648,1,L,,1,,,1,,,,,,
8/27/2013 9:53:01 AM,01yr20,C:FABCO1D10:23,ABCO,,-2147483647,1,L,,1,,,1,,,,,,
8/27/2013 12:03:03 PM,01yr20,C:FABCO1D10:19,,0.005,,,,,,,,,,,,,True,
8/27/2013 12:03:03 PM,01yr20,C:FABCO1D10:19,PIJE,,-2147483648,5,L,,1,,,1,,,,,,
8/27/2013 12:18:34 PM,01yr20,C:FABCO1D10:22,,0.005,,,,,,,,,,,,,True,
8/27/2013 12:18:34 PM,01yr20,C:FABCO1D10:22,PIJE,,-2147483646,1,L,,2,,,1,,,,,,
8/27/2013 12:18:34 PM,01yr20,C:FABCO1D10:22,ABCO,,-2147483648,5,L,,2,,,1,,,,,,
8/27/2013 12:18:34 PM,01yr20,C:FABCO1D10:22,ABCO,,-2147483647,1,L,,3,,,1,,,,,,
8/27/2013 2:49:26 PM,01yr20,C:FABCO1D10:21,,0.005,,,,,,,,,,,,,True,
8/27/2013 2:49:26 PM,01yr20,C:FABCO1D10:21,PIJE,,-2147483647,1,L,,1,,,1,,,,,,
8/27/2013 2:49:26 PM,01yr20,C:FABCO1D10:21,CADE27,,-2147483648,1,L,,5,,,1,,,,,,
8/27/2013 2:49:26 PM,01yr20,C:FABCO1D10:21,CADE27,,-2147483645,2,L,,4,,,1,,,,,,
8/27/2013 2:49:26 PM,01yr20,C:FABCO1D10:21,CADE27,,-2147483644,3,L,,1,,,1,,,,,,
8/27/2013 2:49:26 PM,01yr20,C:FABCO1D10:21,ABCO,,-2147483646,1,L,,2,,,1,,,,,,
8/28/2013 12:37:55 PM,01yr15,C:FPIJE1D05:3,,0.005,,,,,,,,,,,,,True,
8/28/2013 12:37:55 PM,01yr15,C:FPIJE1D05:3,NA,,-2147483648,0,,,0,,,1,,,,,,
8/28/2013 1:20:47 PM,01yr20,C:FABCO1D10:20,,0.005,,,,,,,,,,,,,True,
8/28/2013 1:20:47 PM,01yr20,C:FABCO1D10:20,NA,,-2147483648,0,,,0,,,1,,,,,,
8/28/2013 2:38:06 PM,01yr20,B:FABCO1D10:28,,0.005,,,,,,,,,,,,,True,
8/28/2013 2:38:06 PM,01yr20,B:FABCO1D10:28,ABCO,,-2147483648,1,L,,1,,,1,,,,,,
9/12/2013 4:14:24 PM,01yr20,C:FABCO1D10:33,,0.005,,,,,,,,,,,,,True,
9/12/2013 4:14:24 PM,01yr20,C:FABCO1D10:33,ABCO,,-2147483648,2,L,,1,,,1,,,,,,
9/12/2013 4:14:24 PM,01yr20,C:FABCO1D10:33,ABCO,,-2147483647,4,L,,1,,,1,,,,,,
9/19/2013 10:52:02 AM,01yr15,C:FPIJE1D05:8,,0.005,,,,,,,,,,,,,True,
9/19/2013 10:52:02 AM,01yr15,C:FPIJE1D05:8,PIJE,,-2147483648,1,L,,1,,,1,,,,,,
9/19/2013 11:34:20 AM,01yr15,C:FPICO1D10:2,,0.005,,,,,,,,,,,,,True,
9/19/2013 11:34:20 AM,01yr15,C:FPICO1D10:2,PICO,,-2147483648,5,L,,1,,,1,,,,,,
9/19/2013 11:34:20 AM,01yr15,C:FPICO1D10:2,PICO,,-2147483647,4,L,,1,,,1,,,,,,
9/19/2013 11:34:20 AM,01yr15,C:FPICO1D10:2,PICO,,-2147483646,1,L,,3,,,1,,,,,,
9/19/2013 11:34:20 AM,01yr15,C:FPICO1D10:2,PICO,,-2147483643,2,L,,1,,,1,,,,,,
9/19/2013 11:34:20 AM,01yr15,C:FPICO1D10:2,PICO,,-2147483640,3,L,,1,,,1,,,,,,
9/19/2013 11:34:20 AM,01yr15,C:FPICO1D10:2,ABCO,,-2147483645,4,L,,2,,,1,,,,,,
9/19/2013 11:34:20 AM,01yr15,C:FPICO1D10:2,ABCO,,-2147483644,3,L,,3,,,1,,,,,,
9/19/2013 11:34:20 AM,01yr15,C:FPICO1D10:2,ABCO,,-2147483642,2,L,,4,,,1,,,,,,
9/19/2013 11:34:20 AM,01yr15,C:FPICO1D10:2,ABCO,,-2147483641,1,L,,1,,,1,,,,,,
9/23/2013 3:47:12 PM,01yr20,C:FABCO1D10:12,,0.005,,,,,,,,,,,,,True,
9/23/2013 3:47:12 PM,01yr20,C:FABCO1D10:12,CADE27,,-2147483648,1,L,X,1,,,1,,,,,,
9/24/2013 8:53:27 AM,01yr15,C:FPIJE1D05:7,,0.005,,,,,,,,,,,,,True,
9/24/2013 8:53:27 AM,01yr15,C:FPIJE1D05:7,NA,,-2147483648,0,,,0,,,1,,,,,,
9/24/2013 10:12:14 AM,01yr15,C:FPIJE1D05:6,,0.005,,,,,,,,,,,,,True,
9/24/2013 10:12:14 AM,01yr15,C:FPIJE1D05:6,ABCO,,-2147483648,4,L,,1,,,1,,,,,,
9/26/2013 1:48:05 PM,01yr20,C:FPIJE1D05:4,,0.005,,,,,,,,,,,,,True,
9/26/2013 1:48:05 PM,01yr20,C:FPIJE1D05:4,ABMA,,-2147483648,5,L,,1,,,1,,,,,,
7/1/2014 9:31:25 AM,01yr20,B:FABCO1D10:2,,0.005,,,,,,,,,,,,,True,
7/1/2014 9:31:25 AM,01yr20,B:FABCO1D10:2,ABCO,,-2147483648,1,L,,6,,,1,,,,,,
7/1/2014 10:28:16 AM,01yr20,B:FABCO1D10:4,,0.005,,,,,,,,,,,,,True,
7/1/2014 10:28:16 AM,01yr20,B:FABCO1D10:4,ABCO,,-2147483648,2,L,,2,,,1,,,,,,
7/1/2014 10:28:16 AM,01yr20,B:FABCO1D10:4,ABCO,,-2147483647,3,L,,2,,,1,,,,,,
7/1/2014 10:28:16 AM,01yr20,B:FABCO1D10:4,ABCO,,-2147483646,4,L,,3,,,1,,,,,,
7/8/2014 8:05:33 AM,01yr20,B:FABCO1D10:8,,0.005,,,,,,,,,,,,,True,
7/8/2014 8:05:33 AM,01yr20,B:FABCO1D10:8,PICO,,-2147483648,4,L,,1,,,1,,,,,,
7/8/2014 8:05:33 AM,01yr20,B:FABCO1D10:8,PICO,,-2147483647,5,L,,2,,,1,,,,,,
7/8/2014 8:12:50 AM,01yr20,B:FABCO1D10:6,,0.005,,,,,,,,,,,,,True,
7/8/2014 8:12:50 AM,01yr20,B:FABCO1D10:6,ABCO,,-2147483648,1,L,,149,,,1,,,,,,
7/10/2014 3:12:52 PM,01yr20,B:FABCO1D10:18,,0.005,,,,,,,,,,,,,True,
7/10/2014 3:12:52 PM,01yr20,B:FABCO1D10:18,PIJE,,-2147483645,1,L,,1,,,1,,,,,,
7/10/2014 3:12:52 PM,01yr20,B:FABCO1D10:18,ABMA,,-2147483647,1,L,,1,,,1,,,,,,
7/10/2014 3:12:52 PM,01yr20,B:FABCO1D10:18,ABCO,,-2147483648,1,L,,18,,,1,,,,,,
7/10/2014 3:12:52 PM,01yr20,B:FABCO1D10:18,ABCO,,-2147483646,2,L,,9,,,1,,,,,,
7/10/2014 3:12:52 PM,01yr20,B:FABCO1D10:18,ABCO,,-2147483644,3,L,,1,,,1,,,,,,
8/12/2014 1:07:50 PM,01yr20,B:FABCO1D10:7,,0.005,,,,,,,,,,,,,True,
8/12/2014 1:07:50 PM,01yr20,B:FABCO1D10:7,PICO,,-2147483648,5,L,,26,,,1,,,,,,
8/12/2014 1:07:50 PM,01yr20,B:FABCO1D10:7,PICO,,-2147483647,3,L,,3,,,1,,,,,,
8/12/2014 1:07:50 PM,01yr20,B:FABCO1D10:7,PICO,,-2147483646,4,L,,5,,,1,,,,,,
8/12/2014 1:07:50 PM,01yr20,B:FABCO1D10:7,PICO,,-2147483644,1,L,,1,,,1,,,,,,
8/12/2014 1:07:50 PM,01yr20,B:FABCO1D10:7,ABCO,,-2147483645,2,L,,3,,,1,,,,,,
8/12/2014 4:04:09 PM,01yr20,B:FABCO1D10:26,,0.005,,,,,,,,,,,,,True,
8/12/2014 4:04:09 PM,01yr20,B:FABCO1D10:26,ABCO,,-2147483648,1,L,,1,,,1,,,,,,
8/13/2014 3:27:07 PM,01yr20,B:FABCO1D10:25,,0.005,,,,,,,,,,,,,True,
8/13/2014 3:27:07 PM,01yr20,B:FABCO1D10:25,PIJE,,-2147483647,1,L,,1,,,1,,,,,,
8/13/2014 3:27:07 PM,01yr20,B:FABCO1D10:25,CADE27,,-2147483648,2,L,,1,,,1,,,,,,
8/13/2014 3:27:07 PM,01yr20,B:FABCO1D10:25,CADE27,,-2147483646,3,L,,1,,,1,,,,,,
8/13/2014 3:27:07 PM,01yr20,B:FABCO1D10:25,CADE27,,-2147483645,1,L,,3,,,1,,,,,,
8/13/2014 3:27:07 PM,01yr20,B:FABCO1D10:25,ABCO,,-2147483644,1,L,,3,,,1,,,,,,
8/14/2014 11:42:39 AM,01yr20,B:FABCO1D10:40,,0.005,,,,,,,,,,,,,True,
8/14/2014 11:42:39 AM,01yr20,B:FABCO1D10:40,ABCO,,-2147483648,1,L,,2,,,1,,,,,,
8/14/2014 1:12:13 PM,01yr20,B:FPIJE1D05:1,,0.005,,,,,,,,,,,,,True,
8/14/2014 1:12:13 PM,01yr20,B:FPIJE1D05:1,NA,,-2147483648,0,,,0,,,1,,,,,,
8/20/2014 11:36:18 AM,01yr20,C:FABCO1D10:41,,0.005,,,,,,,,,,,,,True,
8/20/2014 11:36:18 AM,01yr20,C:FABCO1D10:41,ABCO,,-2147483648,1,L,,26,,,1,,,,,,
8/21/2014 7:46:26 AM,01yr20,B:FPILA1D09:1,,0.005,,,,,,,,,,,,,True,
8/21/2014 7:46:26 AM,01yr20,B:FPILA1D09:1,NA,,-2147483648,0,,,0,,,1,,,,,,
8/21/2014 4:27:46 PM,01yr20,B:FPIJE1D05:5,,0.005,,,,,,,,,,,,,True,
8/21/2014 4:27:46 PM,01yr20,B:FPIJE1D05:5,PIJE,,-2147483648,3,L,,1,,,1,,,,,,
8/21/2014 4:27:46 PM,01yr20,B:FPIJE1D05:5,CADE27,,-2147483647,2,L,,1,,,1,,,,,,
8/25/2014 2:44:29 PM,01yr15,C FABCO1D10-37,,0.005,,,,,,,,,,,,,True,
8/25/2014 2:44:29 PM,01yr15,C FABCO1D10-37,NA,,-2147483648,0,,,0,,,1,,,,,,
8/26/2014 11:59:24 AM,01yr15,C FABCO1D10-38,,0.005,,,,,,,,,,,,,True,
8/26/2014 11:59:24 AM,01yr15,C FABCO1D10-38,ABCO,,-2147483648,5,L,,2,,,1,,,,,,
8/26/2014 11:59:24 AM,01yr15,C FABCO1D10-38,ABCO,,-2147483647,4,L,,2,,,1,,,,,,
8/27/2014 8:57:39 AM,01yr15,C FPIJE1D06-08,,0.005,,,,,,,,,,,,,True,
8/27/2014 8:57:39 AM,01yr15,C FPIJE1D06-08,ABCO,,-2147483648,3,L,,1,,,1,,,,,,
8/27/2014 9:41:11 AM,01yr15,C FPIJE1D05-12,,0.005,,,,,,,,,,,,,True,
8/27/2014 9:41:11 AM,01yr15,C FPIJE1D05-12,NA,,-2147483648,0,,,0,,,1,,,,,,
8/29/2014 10:48:53 AM,01yr20,B:FABCO1D10:30,,0.005,,,,,,,,,,,,,True,
8/29/2014 10:48:53 AM,01yr20,B:FABCO1D10:30,ABCO,,-2147483648,3,L,,2,,,1,,,,,,
9/17/2014 2:34:08 PM,01yr20,B:FABCO1D10:3,,0.005,,,,,,,,,,,,,True,
9/17/2014 2:34:08 PM,01yr20,B:FABCO1D10:3,ABCO,,-2147483648,1,L,,4,,,1,,,,,,
9/17/2014 4:47:03 PM,01yr20,B:FABCO1D10:24,,0.005,,,,,,,,,,,,,True,
9/17/2014 4:47:03 PM,01yr20,B:FABCO1D10:24,CADE27,,-2147483648,2,L,,9,,,1,,,,,,
9/17/2014 4:47:03 PM,01yr20,B:FABCO1D10:24,CADE27,,-2147483647,1,L,,5,,,1,,,,,,
9/22/2014 11:50:55 AM,01yr20,C:FPIJE1D05:2,,0.005,,,,,,,,,,,,,True,
9/22/2014 11:50:55 AM,01yr20,C:FPIJE1D05:2,NA,,-2147483648,0,,,0,,,1,,,,,,
9/23/2014 10:06:32 AM,01yr20,B:FPIJE1D09:3,,0.005,,,,,,,,,,,,,True,
9/23/2014 10:06:32 AM,01yr20,B:FPIJE1D09:3,PIJE,,-2147483647,1,L,,2,,,1,,,,,,
9/23/2014 10:06:32 AM,01yr20,B:FPIJE1D09:3,PICO,,-2147483645,1,L,,2,,,1,,,,,,
9/23/2014 10:06:32 AM,01yr20,B:FPIJE1D09:3,ABCO,,-2147483648,1,L,,15,,,1,,,,,,
9/23/2014 10:06:32 AM,01yr20,B:FPIJE1D09:3,ABCO,,-2147483646,2,L,,3,,,1,,,,,,
9/23/2014 10:48:15 AM,01yr20,B:FABMA1D10:1,,0.005,,,,,,,,,,,,,True,
9/23/2014 10:48:15 AM,01yr20,B:FABMA1D10:1,PIJE,,-2147483642,2,L,,1,,,1,,,,,,
9/23/2014 10:48:15 AM,01yr20,B:FABMA1D10:1,ABMA,,-2147483645,3,L,,1,,,1,,,,,,
9/23/2014 10:48:15 AM,01yr20,B:FABMA1D10:1,PICO,,-2147483643,3,L,,1,,,1,,,,,,
9/23/2014 10:48:15 AM,01yr20,B:FABMA1D10:1,ABCO,,-2147483648,2,L,,9,,,1,,,,,,
9/23/2014 10:48:15 AM,01yr20,B:FABMA1D10:1,ABCO,,-2147483647,3,L,,13,,,1,,,,,,
9/23/2014 10:48:15 AM,01yr20,B:FABMA1D10:1,ABCO,,-2147483646,4,L,,1,,,1,,,,,,
9/23/2014 10:48:15 AM,01yr20,B:FABMA1D10:1,ABCO,,-2147483644,1,L,,1,,,1,,,,,,
9/29/2014 8:17:14 AM,01yr15,C FABCO1D10-36,,0.005,,,,,,,,,,,,,True,
9/29/2014 8:17:14 AM,01yr15,C FABCO1D10-36,CADE27,,-2147483648,5,L,,1,,,1,,,,,,
8/11/2015 12:17:19 PM,01yr20,C:FPIJE1D05:3,,0.005,,,,,,,,,,,,,True,
8/11/2015 12:17:19 PM,01yr20,C:FPIJE1D05:3,NA,,-2147483648,0,,,0,,,1,,,,,,
